# Common proprietary files - from UL-ASUS_X01BD-WW-17.2018.2012.434-user build, unless pinned

# ADSP - from S62Pro RKQ1.210406.002
system_ext/lib/libadsprpc_system.so|fd315da148c4ab2930401b867778b2f9a7f09d79
system_ext/lib/libmdsprpc_system.so|5f40a5c3944e358bd06dec2e8f38f29438cc448a
system_ext/lib/libsdsprpc_system.so|4da90922c4a78cd2887bc507a58b961e1f14e434
system_ext/lib64/libadsprpc_system.so|77e5d1452f0f86185093fa34529b9b5f818a75ef
system_ext/lib64/libmdsprpc_system.so|b5ea6a8e2b9d99cb85b6d313a8d7bf2a28c82c7f
system_ext/lib64/libsdsprpc_system.so|cde1ea070efa2f8ab4b3b5dfeeb26b732ce1017d
vendor/bin/adsprpcd|5e246a6f5d2dca27e29b233a17e4673532191b95
vendor/etc/init/vendor.qti.adsprpc-service.rc|54588df8e7da58c66838028d2284986b966c2d37
vendor/lib/libadsp_default_listener.so|c822c536d9776ca2d60bf5a158531544f20c4829
vendor/lib/libadsp_hvx_callback_skel.so|349803cd69d676e386b2a923c128c49aeefdeb4a
vendor/lib/libadsp_hvx_stub.so|59e9f81b8d3a41a69badf201acee57615f822013
vendor/lib/libadsprpc.so|3da7471cbfb2f26bb997d21098282697ee1965e4
vendor/lib/libfastcvadsp_stub.so|6e9d2b6e08188daba1d2f96ab708146391594280
vendor/lib/libfastcvopt.so|4f4a2297c4071c3b22b967000ecc1f4ea1b9d203
vendor/lib/libmdsprpc.so|50380552c78713d9678978b6654c20401b5040f6
vendor/lib/libsdsprpc.so|dcff191dcb9af4cc6f9a54c4eca6664bf6f965a4
vendor/lib64/libadsp_default_listener.so|41f91a64209c0431d87cee08999c5cfdc5dedb38
vendor/lib64/libadsprpc.so|14348488a9d8a30f6787d5b11bf4d4857d23e58e
vendor/lib64/libfastcvadsp_stub.so|3de1763ac58a705dfba9b517169ee2683699eb7c
vendor/lib64/libfastcvopt.so|7d117c620711872774e3d822b4816c516982c25f
vendor/lib64/libmdsprpc.so|d0252bb9747bb90cbb7e8788a9906ecbed44cb60
vendor/lib64/libsdsprpc.so|58ee0bd2d4b5c40afeb7d654dd020f09676fe9d9

# ADSP Modules - from S62Pro RKQ1.210406.002
vendor/lib/rfsa/adsp/libFastRPC_AUE_Forward_skel.so|f4d8675a46c5e52add8f8e90e35b29cd33ac582b
vendor/lib/rfsa/adsp/libFastRPC_UTF_Forward_800h_skel.so|c240d45c3a5fc37b964c4adab06f4cb0bfda62f5
vendor/lib/rfsa/adsp/libFastRPC_UTF_Forward_Qtc2_skel.so|b9f68e320d24e9c51871a2056e1f47239bd1cb40
vendor/lib/rfsa/adsp/libadsp_fd_skel.so|677d2932dac248049f031fc5893163e22b49439a
vendor/lib/rfsa/adsp/libadsp_hvx_add_constant.so|26fb64a92d48e801a31a867976d325efa366a255
vendor/lib/rfsa/adsp/libadsp_hvx_skel.so|05776246445316aea822eaa9cb6ae7a47b23c9aa
vendor/lib/rfsa/adsp/libapps_mem_heap.so|fd362c6b0e30f62cc3fc4566855f46706d2c3c50
vendor/lib/rfsa/adsp/libdspCV_skel.so|a788855fe98d5f6ea73d2693c983efb29165eae1
vendor/lib/rfsa/adsp/libfastcvadsp.so|603711dc1af1f1952d8978a5b494b1541b24c54c
vendor/lib/rfsa/adsp/libfastcvadsp_skel.so|57eff075eaf7a9fb9260f6cf5b918b2e7495fc6f
vendor/lib/rfsa/adsp/libhexagon_nn_skel.so|ec30ec22f831fc9d755f653d9ae336bcbbcd82bf
vendor/lib/rfsa/adsp/libscveObjectSegmentation_skel.so|d2174a2a4a680e93ee4262b5e6d99fd3c398620c
vendor/lib/rfsa/adsp/libscveT2T_skel.so|e8083e551a17e880acb9d72ceb725b762cadf0d2
vendor/lib/rfsa/adsp/libvpp_svc_skel.so|2da97f61c1d14f1f9a38aecd8ab89a1f6fa8d991

# ADSP Modules (AptX)
vendor/lib/rfsa/adsp/capi_v2_aptX_Classic.so
vendor/lib/rfsa/adsp/capi_v2_aptX_HD.so

# Alarm - from S62Pro RKQ1.210406.002
-product/app/PowerOffAlarm/PowerOffAlarm.apk|52e403ee5944bbb6c6952efa2814d98bd5bb8b17
vendor/bin/hw/vendor.qti.hardware.alarm@1.0-service|586b142f9bc4bf3098b4962682c4de1c13810f9b
vendor/bin/power_off_alarm|b8c7ddc1bed336753c3746925fd0f4a9925aa36c
vendor/etc/init/vendor.qti.hardware.alarm@1.0-service.rc|a03a9a1c818595b19272ea6ffb466e23a7fc3b05
vendor/lib64/hw/vendor.qti.hardware.alarm@1.0-impl.so|4129558506dc078c03679ba362acda4755457742
vendor/lib64/vendor.qti.hardware.alarm@1.0.so|dcfdc04b4e0c6e6a4ffa60e1694268bd0327e65c

# ANT+ - from LA.UM.9.12.r1-10800-SMxx50.0
vendor/lib/hw/com.dsi.ant@1.0-impl.so|0878e6b855e4b7495214bca404f13de9053b52f6
vendor/lib64/hw/com.dsi.ant@1.0-impl.so|68131dd2db0df81301d390dc1412bfe7ee54915b

# Audio - from S62Pro RKQ1.210406.002
vendor/lib/libacdb-fts.so|96db6fe2e443326705a37ac6e2e394f03144a386
vendor/lib/libacdbloader.so|4d0743fe7f3eb1d2318feafc06363ffb527ca942
vendor/lib/libacdbrtac.so|b6484ac64f20c4a0f605fb4901d33b8b27a95a74
vendor/lib/libadiertac.so|b0a0ebc89be729e37fe34ceaa05f97a1bc9560a6
vendor/lib/libadm.so|2fd429c8066572cc49262fe0d452c78706197d54
vendor/lib/libaudcal.so|5361c538d20634221c317851c33b0842ced93fca
vendor/lib/libaudioalsa.so|e54da6926b0e284a7a89a6a636003cf562ff53db
vendor/lib/libaudioparsers.so|9a998d072d1bcfe7ce9ca0a4e7a4a38a66318ee6
vendor/lib/libdrc.so|95ae02c1c274e9407b992587b8bb0ff39a08f34e
vendor/lib/libhdmipassthru.so|097e4a0eabbd4e455377baef4b9493442b861055
vendor/lib/libqtigef.so|977cbb704f6b2bae7f4e2f17b8c15146a6cacffb
vendor/lib/libssrec.so|2e06834d12daab407d34bffad0cc8192d069b706
vendor/lib64/libacdb-fts.so|436bc68b1de28716607e5c8445b60dd21f56a5d2
vendor/lib64/libacdbloader.so|f0c47deb5cabfc7e7922e31c74d9913a78f062fe
vendor/lib64/libacdbrtac.so|621360f8363fd5e55ea9cd0f4c8f216397ff900c
vendor/lib64/libadiertac.so|2a529d2fee97919b0bfb1f94854bf01845c3fdf7
vendor/lib64/libaudcal.so|2e89c718670a9772ff90ed2739a42626b977dc39
vendor/lib64/libaudioalsa.so|361b3de1f094cc0943add1ef7040ffeadc5dbdcb
vendor/lib64/libaudioparsers.so|c0c3f1e2eafac1194334fd85dfcdb7e398a2c6c2
vendor/lib64/libhdmipassthru.so|f6e46857a65a39214a09838f1b37a82926a485c6
vendor/lib64/libqtigef.so|cdbc8eb095afddd0f990c972cd8c1b2b4e7e9cd7
vendor/lib64/libssrec.so|0c744218cb46817b288017b363720f08c791cf00

# Audio FX modules - from S62Pro RKQ1.210406.002
system_ext/etc/permissions/audiosphere.xml|015ad7be4921039238bfa3d34d052d752453e49c
-system_ext/framework/audiosphere.jar|9c28317f12b93a6d881c80a991ff24716fce4a12
vendor/lib/soundfx/libasphere.so|90940fca6f4b84794046513c6c6868eca9470066
vendor/lib/soundfx/libqcbassboost.so|8e92c5d40cd23f503840b055d71336e4c9daecc0
vendor/lib/soundfx/libqcreverb.so|7e05f1f4bdd2947dac3aefd871437d289581078b
vendor/lib/soundfx/libqcvirt.so|03a8b95eb77811e3861307ab1451f4144bba2572
vendor/lib64/soundfx/libasphere.so|b9296f601776e631be0f347f8f10d26689103d12
vendor/lib64/soundfx/libqcbassboost.so|c7848527250aadbebf3678f7a4dabaa626ff0592
vendor/lib64/soundfx/libqcreverb.so|3757e8f881b812a9dd15745ea3970cc503c1fe2e
vendor/lib64/soundfx/libqcvirt.so|87e373b19ef8afed1f087571136b37c3a8d452c0

# Bluetooth - from LA.UM.9.12.r1-10800-SMxx50.0
vendor/bin/hw/android.hardware.bluetooth@1.0-service-qti|a0ad0c5fad68002cf387bc0f758c55fb2dc89756
vendor/etc/init/android.hardware.bluetooth@1.0-service-qti.rc|f4ee3b2da2b08647447869ade86ec63f7340accc
vendor/lib64/hw/android.hardware.bluetooth@1.0-impl-qti.so|50caf5267687060b01f7bf021dfed70eb70ac80c
vendor/lib64/hw/vendor.qti.hardware.bluetooth_sar@1.1-impl.so|8b6412d4ec8b4d9885b8ab60d4ddd9e6987bb111
vendor/lib64/libbt-hidlclient.so|fd202ec3a2bf6d35d4c41330ab0dd34f97f1af0e
vendor/lib64/libbtnv.so|97a565f4ad7678525fe112e30e51bf754d02c5fa
vendor/lib64/vendor.qti.hardware.bluetooth_sar@1.0.so|3f81d703a5d1b635170b01f12b185b2215992df7
vendor/lib64/vendor.qti.hardware.bluetooth_sar@1.1.so|fff9d4896b3cfea0ca857788cedaac268da4778d

# Bluetooth Audio - from LA.UM.9.12.r1-10800-SMxx50.0
vendor/lib64/hw/vendor.qti.hardware.btconfigstore@1.0-impl.so|7b858110fc095441bdec79215adabb03000dabce
vendor/lib64/hw/vendor.qti.hardware.btconfigstore@2.0-impl.so|84e96f1a573cd12e05550d8cf956e5a3c5b9021b

# Bluetooth (aptX) - from sunfish RQ1A.201205.008
system_ext/lib64/libaptXHD_encoder.so|e13fa70c97caaa24d061678bdee608eb8850a69e
system_ext/lib64/libaptX_encoder.so|df1c89d7af1bb35808d5fe3496b04ba066c10cbc

# Capability Configstore - from LA.UM.9.12.r1-10800-SMxx50
vendor/bin/hw/vendor.qti.hardware.capabilityconfigstore@1.0-service|0b729eef1d4e819db62fd771b66979eaee3566ef
vendor/etc/init/vendor.qti.hardware.capabilityconfigstore@1.0-service.rc|4ede0250585a44b01d351bbc301d7a13cc3d783d
vendor/lib64/hw/vendor.qti.hardware.capabilityconfigstore@1.0-impl.so|52006534d0d9a9093afce38414bd385f5193cec2

# CDSP - from S62Pro RKQ1.210406.002
system_ext/lib/libcdsprpc_system.so|78b3fc57248a97ad0498a070487d58875aa2fe3b
system_ext/lib64/libcdsprpc_system.so|2fddb95160c8d803d28ed3b4b9f4146812d65280
vendor/bin/cdsprpcd|ea126ed2f1b11622547239f331b8013320c59ad2
vendor/etc/init/vendor.qti.cdsprpc-service.rc|36772b70216796e8ef19376d9c6a81ee9ffff549
vendor/lib/libcdsp_default_listener.so|1c24530e998d6ea908b86afd20470e7e3d0a48c0
vendor/lib/libcdsprpc.so|4ef30602663e13d44e1c7dd09db927fa4e6947ae
vendor/lib/libfastrpc_utf_stub.so|945a41ea68452806d1a5add3584d34b30c7f9a95
vendor/lib/libsysmon_cdsp_skel.so|8a23e64a696517679e7c336fc31f3b912f4ca32a
vendor/lib64/libcdsp_default_listener.so|96d722b324c4d1a554d0f018d8cbbb8c4e4519b8
vendor/lib64/libcdsprpc.so|891066a404b155c545ff7f4bf23cb7e042f29f28
vendor/lib64/libfastrpc_utf_stub.so|15243b9539bb74069d6ee59bd70340b0ea0ec338
vendor/lib64/libsysmon_cdsp_skel.so|6b07100c3294c76402e2d064d463629c9468d6a9

# Charger - from S62Pro RKQ1.210406.002
vendor/bin/hvdcp_opti|0af1d3a59fd10acd7a614662c341421d9267014c

# CNE - from LA.UM.9.12.r1-10800-SMxx50.0
-vendor/app/CACertService/CACertService.apk;PRESIGNED|b08fa7c9d2faba99547db99df908909dfc0c8e90
-vendor/app/CneApp/CneApp.apk|f90e9b497c0bd9328e8e63120615f2704489dbbc
-vendor/app/IWlanService/IWlanService.apk|695b3fa7e70f6079cf7e90144fcb79591dff38d0
vendor/bin/cnd|5ae77743b1dd041edf584535b67425ddab9e8336
vendor/bin/mutualex|bd08196143d860e56eabdc299313cd0ead44880d
vendor/etc/cne/wqeclient/ATT/ATT_profile1.xml|578f3f8f56059bfdbef926bcc68d01c15e06951f
vendor/etc/cne/wqeclient/ATT/ATT_profile2.xml|1fb42c672a12b6660bdce3ea94e0c43719dd9de8
vendor/etc/cne/wqeclient/ATT/ATT_profile3.xml|f88e13f1dd7b82388c90358f71813026370c9ed8
vendor/etc/cne/wqeclient/ATT/ATT_profile4.xml|fb08e04f57797c5684bf734f7ce4bb4968859b18
vendor/etc/cne/wqeclient/ATT/ATT_profile5.xml|eb726ad1a42b9b78b9ee3b821fc108611bc9eeac
vendor/etc/cne/wqeclient/ATT/ATT_profile6.xml|be97b46b0d07ee2f6ebcc677d8099ed2140d5d85
vendor/etc/cne/wqeclient/ROW/ROW_profile1.xml|e7ca213d0998cb3a6a603ad3eca7bda69830ff55
vendor/etc/cne/wqeclient/ROW/ROW_profile15.xml|0130dfd8326ee710bf4e15718ede87c49a85b763
vendor/etc/cne/wqeclient/ROW/ROW_profile16.xml|e05b935d7ccf48d306b71c719b2e4df83187d9c0
vendor/etc/cne/wqeclient/ROW/ROW_profile17.xml|f1b33204799268eda78dd8314f26abf2e37431e2
vendor/etc/cne/wqeclient/ROW/ROW_profile18.xml|19db16f62dabb806a62f192858a9d52b5bc2a064
vendor/etc/cne/wqeclient/ROW/ROW_profile19.xml|1fcc57b1fa4dbbc7d250e8dd92acf1527d447eb3
vendor/etc/cne/wqeclient/ROW/ROW_profile2.xml|169a5209000e357a1a3183e8e5bfdf6fd07c2787
vendor/etc/cne/wqeclient/ROW/ROW_profile20.xml|7be0614cf0116c39b736c58fe5eca36838aeb3db
vendor/etc/cne/wqeclient/ROW/ROW_profile21.xml|cc62517e6c37e12ee1ebebbb27f9c22878749be3
vendor/etc/cne/wqeclient/ROW/ROW_profile3.xml|4be4060e8ac2d9fcea490feec7938cadcff46e1f
vendor/etc/cne/wqeclient/ROW/ROW_profile32.xml|b87542b9284efe4c2bd0ae868bb9a765c2c3dbc5
vendor/etc/cne/wqeclient/ROW/ROW_profile4.xml|f88e13f1dd7b82388c90358f71813026370c9ed8
vendor/etc/cne/wqeclient/ROW/ROW_profile5.xml|96101f6b01436a02572c67a469ff67ccfb738874
vendor/etc/cne/wqeclient/ROW/ROW_profile6.xml|cef14ff8a160c7ad719b85d024a4b3301c3638d0
vendor/etc/cne/wqeclient/ROW/ROW_profile7.xml|8d6773a4c418d0dcc4dc9096017d2681c7a1defe
vendor/etc/cne/wqeclient/VZW/VZW_profile1.xml|c89d3c062790b442cbe941cafc641a4e322f2d59
vendor/etc/cne/wqeclient/VZW/VZW_profile2.xml|ba14a9df975cf872ed0cbe28bee8fac63cd848d4
vendor/etc/cne/wqeclient/VZW/VZW_profile3.xml|9b123d81c9b8991499cda33b0706810e0c8fb974
vendor/etc/cne/wqeclient/VZW/VZW_profile4.xml|ff91feb5060a6df07e3e4d9bc99ae58bccad7649
vendor/etc/cne/wqeclient/VZW/VZW_profile5.xml|f76c894f3c6d5b6ed35113a088dc3174c900501b
vendor/etc/cne/wqeclient/VZW/VZW_profile6.xml|14d136e7fcc682311757d3edc0b9d3eaeba11815
vendor/etc/cne/mwqem.conf|c51d3893b86ab89fae218f3a92c4f9c18ea401a8
vendor/etc/cne/profileMwqem.xml|947917691684584b7e2ddf3588cd6f8e99f3804f
vendor/etc/default-permissions/com.qualcomm.qti.cne.xml|c63c37d067e3009735fbc54d4603d43d7d6623e1
vendor/etc/init/cnd.rc|3a5183df3479500fb729493bc56c71166fc10bce
vendor/etc/init/mutualex.rc|d6d6673e59abfdb53232d502842285bae8f323f1
vendor/lib64/libcacertclient.so|264dcc7f6fa782000978f3a6c01c8bb8000c30e8
vendor/lib64/libcne.so|6aa3739fd1f672f1bb23b8de32a3e7bf0371fd73
vendor/lib64/libcneapiclient.so|b0187b64da57348584c643040e6acd59ca9c88a8
vendor/lib64/libcneoplookup.so|6e6566b8e6c069ea8d1d5cf868deab568ce2c95b
vendor/lib64/libcneqmiutils.so|695eb5621cdd3c38397fe28bc07d3b68423095b0
vendor/lib64/libjnihelper.so|89d3dad1902f1ff42bff35ee8c3294df846ce709
vendor/lib64/libwms.so|cc43229a844dab0205bfcbb0f1f51d434272791d
vendor/lib64/libwqe.so|bfd3b32d2a7e8b57925688ecf9fb758371f50a09
vendor/lib64/libxml.so|aa98dbb727ac9ccca19884343427e9a687c55f9f
vendor/lib64/vendor.qti.data.factory@2.0.so|09961663a9b91856548d67f1c00338a70e24f33e
vendor/lib64/vendor.qti.data.factory@2.1.so|cb29ecbbd7a28e33ae4746cfa01c56efe15cc592
vendor/lib64/vendor.qti.data.factory@2.2.so|981ec12a17727f0e3390b054302d7779e6b60f31
vendor/lib64/vendor.qti.data.mwqem@1.0.so|56f461008283b7e8b1d0b9708f030b2ce3333c85
vendor/lib64/vendor.qti.data.slm@1.0.so|fd3d74870589680afd61ee76383f9e77f33a2bbf
vendor/lib64/vendor.qti.hardware.cacert@1.0.so|2373473decd9bcc1c1e8494cc3658b91ad2dd698
vendor/lib64/vendor.qti.hardware.data.cne.internal.api@1.0.so|01c750c160b4d2bdac3e3be47cbe57d5098b7ffd
vendor/lib64/vendor.qti.hardware.data.cne.internal.constants@1.0.so|84c82d834b10867754cdef42dadd7d13dcec5a24
vendor/lib64/vendor.qti.hardware.data.cne.internal.server@1.0.so|d1b6bec46534e1349cd9f6ecab37ad31c595fe65
vendor/lib64/vendor.qti.hardware.data.dynamicdds@1.0.so|727e889af4519d4566af8dd7d9260f248a5cf4a9
vendor/lib64/vendor.qti.hardware.data.qmi@1.0.so|c1515e1a8f060dc834e7189deb0e0b43e57e7f5b
vendor/lib64/vendor.qti.hardware.mwqemadapter@1.0.so|43b4fa65e294070acf46d1733e9507d45e8213e0
vendor/lib64/vendor.qti.hardware.slmadapter@1.0.so|878f819218e155fec02125f81715d2321b3ca64e
vendor/lib64/vendor.qti.latency@2.0.so|ab1775138a2bf0587cd6cc990a432e0ad7dc2379

# Connection Security - from LA.UM.9.12.r1-10800-SMxx50.0
vendor/bin/ssgqmigd|5769f2aef8fdf48f55b01e3d7d3d1aecb860d7e1
vendor/bin/ssgtzd|f2f473c1ecf4323bd206ea90c948c7d34ce287de
vendor/etc/init/ssgtzd.rc|be60402995a8b6dcec3a726b83e7ae2de52017a6

# Data - from LA.UM.9.12.r1-10800-SMxx50.0
vendor/bin/ATFWD-daemon|548c3793b864c2e7b3fbe1db6ae12e84877974b2
vendor/bin/adpl|cf8d2e3fec8a90bf6fb0cc4dc2995159ad721ccd
vendor/bin/ipacm-diag|1f03d6e53fb51c019230001b76d1809bd5ed6bc3
vendor/bin/netmgrd|019641671120ecb955600b874af96db15b920034
vendor/bin/port-bridge|be12839fd27edeb5d9adf9e15c4fc85e9fb52f30
vendor/bin/qti|ad350b6466f7fcdc0b327d4dca42e1750167d743
vendor/etc/data/dsi_config.xml|3658eb99e9601bc09e0b372c9290060f708fd50a
vendor/etc/data/netmgr_config.xml|ba23603f9ccb82cb8f745ede827a178c48a97b97
vendor/etc/init/ipacm-diag.rc|e3cee56d2e3ca6bf9aafb827827ebea369fc2897
vendor/etc/init/netmgrd.rc|5c592bd2cf775462e147d3def97e99abbac4631e
vendor/etc/init/port-bridge.rc|e52d61a0de5e8a3b21bfbfca929e862422645377
vendor/etc/seccomp_policy/atfwd@2.0.policy|74fdb7d47bdb6d0cb06b13701a96a76c9171ab5d
vendor/lib64/libconfigdb.so|e3f09f9d9e55d45a2d7a02bc0b5799a1fb8d00de
vendor/lib64/libdsi_netctrl.so|2140fb70d01136a79d0c8f83fc1374c336ef1726
vendor/lib64/libdsutils.so|5a4793c916dd42f70ab8efb2be1b06adb4efee35
vendor/lib64/libnetmgr.so|fb9b9a07a55e921fbd960edd2d195e11f243cc3b
vendor/lib64/libnetmgr_common.so|53a645ece21950870ee15a67cfec55ced7b1fa7c
vendor/lib64/libnetmgr_nr_fusion.so|98a272e9c256e4e0c13b6a7b2efe80096ed0aac6
vendor/lib64/libnetmgr_rmnet_ext.so|3bb77e8a39cbe2a8b80a591245ac73c0b1164791
vendor/lib64/libnlnetmgr.so|f2e8b6e244cf28e068b8ffd6c6630c6eb3d899f0
vendor/lib64/libqcmaputils.so|e333bed31f357887d718d2b4af1ffd92be1903d8
vendor/lib64/libqdi.so|d69e4b4e69ffa1293cebdfddc1244a407d7b97dc
vendor/lib64/libqdp.so|ec227b4fa051b2698d3042582c82560a42300bd9
vendor/lib64/vendor.qti.hardware.radio.atcmdfwd@1.0.so|f5ee5ed1bbe16e6c4809ea2b7c14c637ec9b8da3

# Diag - from LA.UM.9.12.r1-10800-SMxx50.0
vendor/lib/libdiag.so|6043713ca4b9f97110cb839b51b845bbe4c34440
vendor/lib64/libdiag.so|a060dab58d6882c86520dfe6144b6d3fe042bd88

# DPM - from LA.UM.9.12.r1-10800-SMxx50.0
vendor/bin/dpmQmiMgr|3ef49da6492ae9dec3d56ef3ff55c890c6a53d13
vendor/etc/init/dpmQmiMgr.rc|1538743661a5c48c15cd105beaad20f72953885a
vendor/lib64/com.qualcomm.qti.dpm.api@1.0.so|9b0fea7960b0558206bfc10f341bcbb86e9ba11c
vendor/lib64/libdpmqmihal.so|f3cd740f6ff59a32287d36d52e0ee0c5a0d99230

# DRM - from S62Pro RKQ1.210406.002
vendor/bin/qseecomd|97eeb3f297d16e0364e73f8e78ccb7a07e70f093
vendor/lib/libQSEEComAPI.so|14d85d1661f11fed27a99f618370de21abfbf1b9
vendor/lib/libminksocket.so|d8904b322c59810b44ea533fbed46d58dbe7872b
vendor/lib/libsdedrm.so|752fa74723368e6bde29cbf004fe31d6f33ceb97
vendor/lib64/libGPreqcancel.so|b9efbc8623981e1249ad0a0f8964b2b655d2b334
vendor/lib64/libGPreqcancel_svc.so|5369bb41c214c0bd3782438c0488cd2dba8cb667
vendor/lib64/libQSEEComAPI.so|7ad0a71938c1de5dbb54a52fb68285ac08f0a130
vendor/lib64/libSecureUILib.so|b98555b76083a897fc9bbfc27778750d2d47817a
vendor/lib64/libStDrvInt.so|6091f1f496b87730f9a77e9ede504c4fa99c608a
vendor/lib64/libbase64.so|ba6ad6314fe82d8efc770e436237dec48c9d1331
vendor/lib64/libdrmfs.so|d01f7964b64bfabd56afea030a2e874f5b3af266
vendor/lib64/libdrmtime.so|9aca2a5224378365232933b06a742a2498dd7468
vendor/lib64/libminksocket.so|95b69993dd6cc1700a9e1feb09cadc0997342d89
vendor/lib64/libqisl.so|c79719eebc094c2af9561e8df2c158638b111b70
vendor/lib64/librmp.so|6392e70196f5a6da2d49a1aaec60f06ca378f1c4
vendor/lib64/librpmb.so|eac8411b60e4842b0fee4c9145dd9cdc3e24a67e
vendor/lib64/libsdedrm.so|f02d7bef5f9fa3f1265b5a8b3b8ab481a4cedee2
vendor/lib64/libsecureui.so|0eec99f49f628e4279b99f475916e4b86fa134ee
vendor/lib64/libsecureui_svcsock.so|6af612f057f4f28720d6db9b300b58c883da6539
vendor/lib64/libsi.so|9475d97d9230283df70edf126368234f1c7fb32b
vendor/lib64/libssd.so|774488b88c37053067b3cad551ac95360c03edd3
vendor/lib64/libtzdrmgenprov.so|8cdbc623f9cbafeab8f89cd24f6875c36fd9121e

# DRM (Qualcomm Trusted Execution Enviroment) - from S62Pro RKQ1.210406.002
vendor/bin/hw/vendor.qti.hardware.qteeconnector@1.0-service|a12cd8a3d326609ee0f0a0cdb5cfc69bd2085f1e
vendor/etc/init/vendor.qti.hardware.qteeconnector@1.0-service.rc|c966350ee67d3a7c73ca7184e3725264025d16f5
vendor/lib/hw/vendor.qti.hardware.qteeconnector@1.0-impl.so|3d0c9fbc3845248d8264d1875e476c23b41f2790
vendor/lib/libQTEEConnector_vendor.so|16a10203eea17821f87e5e078300b8ecbe29deb3
vendor/lib/vendor.qti.hardware.qteeconnector@1.0.so|98fbae4add3d6edc096aed3634831a50328491e5
vendor/lib64/hw/vendor.qti.hardware.qteeconnector@1.0-impl.so|00b11c69484701f95d1f9e1021a66326b5c66e97
vendor/lib64/libQTEEConnector_vendor.so|bf3050ea3ef5435f0289092681f07a2fe834958b
vendor/lib64/vendor.qti.hardware.qteeconnector@1.0.so|4e08dcd830d319c1a56d108c037b1f76eb5060d4

# DRM (TUI) - from S62Pro RKQ1.210406.002
vendor/bin/hw/vendor.qti.hardware.tui_comm@1.0-service-qti|15378114c18fd1b1c8f9671f656396285ad1de48
vendor/etc/init/vendor.qti.hardware.tui_comm@1.0-service-qti.rc|2cfc563d7e1579374f001c94588fae7835a12ffc
vendor/lib/vendor.qti.hardware.tui_comm@1.0.so|16dc51cd62ce73adebdff600e764da481504962f
vendor/lib64/vendor.qti.hardware.tui_comm@1.0.so|4ba792ee3234dca4cd7ebbd7b3f9003c800f51b4

# DRM (Widevine) - from S62Pro RKQ1.210406.002
vendor/bin/hw/android.hardware.drm@1.3-service.widevine|2158f47423c723a9da29bb81bb16987a1e715c21
vendor/etc/init/android.hardware.drm@1.3-service.widevine.rc|c35e1a6f9a6faff19064a81e07c4be82ceaf4bb5
-vendor/etc/vintf/manifest/manifest_android.hardware.drm@1.3-service.widevine.xml|ebebcf8f367641480cf7d512fc06e6ab777527be
vendor/lib64/mediadrm/libwvdrmengine.so|eef10067daf437a2c302e668967a7c8c55fddbe9
vendor/lib64/libbase64.so|ba6ad6314fe82d8efc770e436237dec48c9d1331
vendor/lib64/libcpion.so|80d7e010395b3ead01b70435584dfa11afbb52bf
vendor/lib64/librmp.so|6392e70196f5a6da2d49a1aaec60f06ca378f1c4
vendor/lib64/libwvhidl.so|acf4870a0b10af74a40a4c6180f2c10a1706ddbd

# DRM (Widevine HDCP) - from S62Pro RKQ1.210406.002
vendor/lib64/libhdcpsrm.so|1cb91cbaad3c0a44df4f244f8fb462a9f0ebb0b2
vendor/lib64/libmm-hdcpmgr.so|eb7db96305875b80971fec7b93ea800b6c9a1a77

# DRM (Widevine) - from ASUS_X01BD-user 10 QKQ1 73 release-keys
vendor/lib64/liboemcrypto.so|7380e52e0ec82fef90a9aa1ea305e356d7cfef29

# DSP - from S62Pro RKQ1.210406.002
vendor/bin/dspservice|a8eb76af6150bbf29c12b76b00ab469b99f563f7
vendor/etc/init/vendor.qti.hardware.dsp@1.0-service.rc|fbf2bb38ca6bdddf98c7123da9e1f263a4eec55f
vendor/etc/seccomp_policy/vendor.qti.hardware.dsp.policy|f060101b26d3674bb173e5fc95e118f56a8ac15d
vendor/lib/vendor.qti.hardware.dsp@1.0.so|f902e821229cd1fff50ebfba99b0a068cbf74a56
vendor/lib64/vendor.qti.hardware.dsp@1.0.so|223a9268bd92bd80dab3df02fbef38ea86bcbadd

# ESE - from S62Pro RKQ1.210406.002
vendor/bin/hw/vendor.qti.esepowermanager@1.1-service|040212c2c39ca3f2090291dd3a7f49979e5003df
vendor/etc/init/vendor.qti.esepowermanager@1.1-service.rc|3c024c7135ec3dd8658624509ee61396a74f1ede
vendor/lib/hw/vendor.qti.esepowermanager@1.1-impl.so|8f040162d31397f3851d5507cf4118b41db3b46a
vendor/lib/vendor.qti.esepowermanager@1.0.so|f0d2030ddc5ba93404e09821ec485bb228dbc937
vendor/lib/vendor.qti.esepowermanager@1.1.so|8de052fa33317db94247e74dfe6b8db93a378bec
vendor/lib64/hw/vendor.qti.esepowermanager@1.1-impl.so|7b67b47030f00af1c2e207995eea05f05fb91b23
vendor/lib64/vendor.qti.esepowermanager@1.0.so|6585b5976a98053fb4d2b51c32337ebe8960d427
vendor/lib64/vendor.qti.esepowermanager@1.1.so|61d7c35edb403f8de4be2e483431cb26109ef0ae

# FM - from S62Pro RKQ1.210406.002
system_ext/lib64/fm_helium.so|b2440e4feaae8a7f5e2269525520f9774b6962fc
system_ext/lib64/libfm-hci.so|758c6e7cfafc964b5cd9d71806ec5455e0d78716
system_ext/lib64/vendor.qti.hardware.fm@1.0.so|5eaf6d5d67361ff6236c1ec4f5225c6185a904a6
vendor/lib64/hw/vendor.qti.hardware.fm@1.0-impl.so|05931b5d088bd7000b0b002ee650b0953e272cd7
vendor/lib64/vendor.qti.hardware.fm@1.0.so|f6e23f902b7e15232b20af55161a24da93ffe25f

# Gatekeeper
vendor/bin/hw/android.hardware.gatekeeper@1.0-service-qti
vendor/etc/init/android.hardware.gatekeeper@1.0-service-qti.rc
vendor/lib64/hw/android.hardware.gatekeeper@1.0-impl-qti.so

# GNSS - from LA.UM.9.12.r1-10800-SMxx50.0
vendor/bin/loc_launcher|684028ffab3ef293a241386710fe5855d2b2f70a
vendor/bin/lowi-server|3a73a45ec1fd888ef2761834b10953da68d91bf4
vendor/bin/slim_daemon|46cc6ab22c7111f472fc9c9ec4d410f8c9f99cdc
vendor/bin/xtra-daemon|7b624afda8be6bd9b8bc72114aa2edd3d7b727cd
vendor/bin/xtwifi-client|d9f39eca7e1a8ba67d6ad31c8283c4131315f5c2
vendor/bin/xtwifi-inet-agent|f805841e5c8ca3b0af620486a64a37148daa0980
-vendor/etc/vintf/manifest/vendor.qti.gnss@4.0-service.xml|6514b13f55abc0acc28e004c35ff93fb972d61a9
vendor/etc/cacert_location.pem|0789bf799c7e45d352a83e2f79ddb0cea86db85b
vendor/etc/xtra_root_cert.pem|f55a31ec4d9cf8ce2724acadecf00c779f8767db
vendor/lib64/hw/vendor.qti.gnss@4.0-impl.so|a008467825c1c1ec543c7798ac20d1f2e9f64427
vendor/lib64/libcacertclient.so|264dcc7f6fa782000978f3a6c01c8bb8000c30e8
vendor/lib64/libdataitems.so|ac6b98d92ca967fc8d9d9adf4df21bbc4b3e32dc
vendor/lib64/libgdtap.so|1ecdf14c318489908abba8f589826a2c5825e15b
vendor/lib64/libgnsspps.so|a936f15ea4ebe8f705300747c6ecc8150a0584e1
vendor/lib64/libizat_client_api.so|a82d387c3095f8b8c48d4e0e076c28412a752ecf
vendor/lib64/libizat_core.so|026c4007f1fa83ca420f0e4225c35054b3246f1f
vendor/lib64/libjnihelper.so|89d3dad1902f1ff42bff35ee8c3294df846ce709
vendor/lib64/liblbs_core.so|45ccb2fc0b1b311e3508f50d042ab804a6bd8106
vendor/lib64/libloc_api_v02.so|2ddf9809f692aa0d0e4a2bc1ea7110d577a7ed15
vendor/lib64/libloc_socket.so|7071141f5629276bb81437e15b55d13aae5f1e55
vendor/lib64/liblocationservice.so|2d0466088d2b32555f93e861b820685f84ad1c71
vendor/lib64/liblocationservice_glue.so|da9451f5ed161e2a854d2164756aa0ff5dfaac5d
vendor/lib64/liblowi_client.so|3fb36b1d92ff8e7723e5c4d86678faf158ccd28e
vendor/lib64/liblowi_wifihal.so|965982097d10f6fb7eb2d825372da7c4be02466c
vendor/lib64/libqcc_file_agent.so|b8bcca8eb6af1cd464cfeb401c1e95cb34a6c593
vendor/lib64/libqdma_file_agent.so|469479f849e7057ba3939a563fa50dd6a063ce5d
vendor/lib64/libslimclient.so|3aa0fc6c770096cbf645275e6939725fffa5593f
vendor/lib64/libxtadapter.so|8038961c9cdbac960ac898c53bcda260d361f339
vendor/lib64/vendor.qti.gnss@1.0.so|c36d44d52e8f96b0810f2a4bbe88b94d52195f00
vendor/lib64/vendor.qti.gnss@1.1.so|d443152c9a4a10c570fe2fd1fe419a42a2187ac5
vendor/lib64/vendor.qti.gnss@1.2.so|75b910c1ff4c7f625b9d2634a43afc3a14aadf35
vendor/lib64/vendor.qti.gnss@2.0.so|ba5cf017c9ffce8e02958404eb7f86bc17e0d13e
vendor/lib64/vendor.qti.gnss@2.1.so|edd26a738f33af4c64a16d27e09186eda325f590
vendor/lib64/vendor.qti.gnss@3.0.so|b231e15f8951df7d41ba0d7c9fa32b49b8621a1b
vendor/lib64/vendor.qti.gnss@4.0-service.so|3c75d133af5193436167380aa89abcf05d079968
vendor/lib64/vendor.qti.gnss@4.0.so|7a18241204a0c0977a97a6f5153cd954d9c24a65

# Graphics - from LA.UM.9.6.2.r1-04100-89xx.0
vendor/lib/egl/eglSubDriverAndroid.so|89f22710e92951bd45d7772dc9d882c582cb8c0e
vendor/lib/egl/libEGL_adreno.so|7b1ae9e2c4f44c4449db61b31e1860a8a584bbaf
vendor/lib/egl/libGLESv1_CM_adreno.so|6c63055e6ac76dc5c7cd7842e697a66a71571f4b
vendor/lib/egl/libGLESv2_adreno.so|aac3ee53977457a72f0352cd7c151184a656c591
vendor/lib/egl/libq3dtools_adreno.so|e211af37469cafbb1fd814c6ba90ba9629097379
vendor/lib/egl/libq3dtools_esx.so|5c7222e7cd89deb2abce21fb63f672e62b5fb9a5
vendor/lib/libC2D2.so|64e2a5a20312e5cb59c23b3a3a99bf8912946ed3
vendor/lib/libCB.so|3203ee5054bca2fe6f5f3777ffbbc2989c0e0973
vendor/lib/libOpenCL.so|4e47c45e327d04fa2fd4f49d3e3018f69eaed646
vendor/lib/libadreno_utils.so|baa256389d74875742269411f38d508e3341913d
vendor/lib/libc2d30_bltlib.so|f3667f469dab7b3d5023785c6139819b557b3ed0
vendor/lib/libgsl.so|45888b136c884332bf3f75a2fb1041db4041d8b0
vendor/lib/libllvm-glnext.so|3e69e44fec84f63a9a72694e1a62c371cd97c462
vendor/lib/libllvm-qcom.so|8b473078cba98cf1827127cff168af2d17d803a1
vendor/lib/librs_adreno.so|97756870564754d9cd6e6301a4f1a15f7a5a5711
vendor/lib64/egl/eglSubDriverAndroid.so|d5bc7ac6e13e88fa7b58c2034b85fcba075581b2
vendor/lib64/egl/libEGL_adreno.so|eb26e59665ec42a6889eea2ccf596b8f4e85c219
vendor/lib64/egl/libGLESv1_CM_adreno.so|ebafbd6ce0caf448a5bcfd604cdfe115e3af520a
vendor/lib64/egl/libGLESv2_adreno.so|63414e7edc789bcd80d206de8178db82a8115b3c
vendor/lib64/egl/libq3dtools_adreno.so|d8c8f25332d218a2dbd7cc5052e384b59d07c5a1
vendor/lib64/egl/libq3dtools_esx.so|20ffebd096ca68b71e1a6392be21ecde2246bd63
vendor/lib64/libC2D2.so|6fb775e393ce7161b30e3a71fa0f320e86374425
vendor/lib64/libCB.so|dc54d2c078a29385ef1c3ef63960179de4cd0015
vendor/lib64/libOpenCL.so|d7bf2dd573f3cea80a0c452801ab9dc495ccfae7
vendor/lib64/libadreno_utils.so|75eac3cf993fefa017588778c4fcd66f4ccf295b
vendor/lib64/libc2d30_bltlib.so|8c8fef67e346be907e1f9b312d11a1e9606ad6f0
vendor/lib64/libgsl.so|8ea2075d204467afb13f54364ef7903a8cf38253
vendor/lib64/libllvm-glnext.so|68be9217c41199e463886ba39f59669e095a3427
vendor/lib64/libllvm-qcom.so|4d290868df96dc315a663b3477b9be20a477f9d0
vendor/lib64/librs_adreno.so|d8bee70cc12ab5c6a979427e24fb7843fddae08b

# Graphics (HDR) - from LA.UM.9.6.2.r1-04100-89xx.0
vendor/lib/libhdr_tm.so|3d899ac8b0e6370295ab56ad95076e3c00140f75
vendor/lib64/libhdr_tm.so|cfd5f03dd37b5b6fb46d288bed619b780ec7343e

# Graphics (Post Processing) - from LA.UM.9.6.2.r1-04100-89xx.0
vendor/bin/hw/vendor.display.color@1.0-service|fe8aebf4caa5d3d5ae8f6a8ceef0f5718e89f8ec
vendor/bin/mm-pp-dpps|798084a9ea98a808e768c430bbe199c2ad257ca1
vendor/etc/init/vendor.display.color@1.0-service.rc|5ad673f879b3685a0e79b5633437e5499cb94f48
vendor/lib/vendor.display.color@1.0.so|66a724a1a3cbca71edeec5c88957749ac0bf364a
vendor/lib/vendor.display.postproc@1.0.so|d1118b8db81ea80487afcc5383f79691c70aeb12
vendor/lib64/libdisp-aba.so|eb67e6d037c935e30e48f6d92fbbf2188b3f8239
vendor/lib64/vendor.display.color@1.0.so|b1db446a13b1598675a8f538fe1d18d3b08ef570
vendor/lib64/vendor.display.postproc@1.0.so|9d70df811e194e4dc6dce9a6a0c87cd74c507e9d

# Graphics (SDM) - from LA.UM.8.2.1.r1-05600-sdm660
vendor/lib/libqseed3.so|44f99b99b831227491e320a3098c8defe8df0781
vendor/lib64/libqseed3.so|6779aaf96283e244122f4cc76cd3cb750ff14ed5

# Graphics (SDM) - from LA.UM.9.6.2.r1-04100-89xx.0
vendor/lib/libscalar.so|835649ab934f93d545059fd08040c6acbf7f3d1b
vendor/lib/libsdm-color.so|e83b9eae6f2c491deafd59de84bbfcee91435af4
vendor/lib/libsdm-diag.so|d5dc905efd50f08449f426a42d092e7947ac607a
vendor/lib/libsdm-disp-vndapis.so|41ad68d9f688f3e4c8bd2d891c1ece822af5ffd5
vendor/lib/libsdmextension.so|eea3dca5bcf481a73ca167b72d951dc0ea576e52
vendor/lib/libtinyxml2_1.so|78a92dd74248531bccd5c5d31fe0fa2984cad85c
vendor/lib64/libscalar.so|c47e029b8eabb8cedb1cea92f49d2c876106b326
vendor/lib64/libsdm-color.so|7caa3c7a3dfd0e0d5ab71c287bc142d1053df50b
vendor/lib64/libsdm-diag.so|71b1a41c3cb78cba8cd25dd2fe91892303c23e05
vendor/lib64/libsdm-disp-vndapis.so|55f941f470b22f9661019740839b0524cdec979c
vendor/lib64/libsdmextension.so|4e5ee8c59b518a5dbe1917c735c550a2fe2bd301
vendor/lib64/libtinyxml2_1.so|92101861d95cbdf9625d192d0b2295baa5960b68

# Graphics (Vulkan) - from LA.UM.9.6.2.r1-04100-89xx.0
vendor/lib/hw/vulkan.adreno.so|5143d4e35f249031b7c9b9270b6a59c8426f3be5
vendor/lib64/hw/vulkan.adreno.so|3237ce301808220851dea5b4d6f8c0ba7ea97c02

# Keymaster
vendor/bin/hw/android.hardware.keymaster@3.0-service-qti
vendor/etc/init/android.hardware.keymaster@3.0-service-qti.rc
vendor/lib/hw/android.hardware.keymaster@3.0-impl-qti.so
vendor/lib64/hw/android.hardware.keymaster@3.0-impl-qti.so

# Keymaster - from S62Pro RKQ1.210406.002
vendor/lib/libkeymasterdeviceutils.so|a0de8c0055d2cfac9202d8eef88854c1e9795ff4
vendor/lib/libkeymasterprovision.so|c16328226bb07371a4928906bd70888bbee27895
vendor/lib/libkeymasterutils.so|a2f7e894af47c33c8bf700b5a1e0a676196affde
vendor/lib64/libkeymasterdeviceutils.so|6fd0b0e1b30c4e6c5272794896306596880c657b
vendor/lib64/libkeymasterprovision.so|d6c95d3543c707df133d50764f647e5f07adb82b
vendor/lib64/libkeymasterutils.so|2392abef423c0610d9625670f1ff3063532e9bc1

# Listen - from S62Pro RKQ1.210406.002
vendor/lib/hw/sound_trigger.primary.sdm660.so|5464b9658c9b819e18f3ad6703471278521a79d1
vendor/lib/libadpcmdec.so|b3ec2cc197b682aa6ae7e1da9c8f25cc1aa75750
vendor/lib/libgcs-calwrapper.so|a80d1d6b0b6e76083b0ca98d690c5cb46e113904
vendor/lib/libgcs-ipc.so|177f711fc9e01970ef17e9f8a79776ef31d8c973
vendor/lib/libgcs-osal.so|413c0b9b767d8aa1da477f89b162d5b13604e0cf
vendor/lib/libgcs.so|136b036d645ce31c3265cf2aed00c472ecec37e4
vendor/lib/liblistensoundmodel2.so|375948b769905112429ae4fb2979be0b1e363950
vendor/lib/libsmwrapper.so|0fbf611c9a597f7c70bfd2363dfc7f465d1dafd5
vendor/lib64/libgcs-calwrapper.so|b091f07cced39887778d1c678de9d00a6b08a793
vendor/lib64/libgcs-ipc.so|a999ffc3f4a711fb754f32a3c517d3a16ad0465a
vendor/lib64/libgcs-osal.so|6563b261374b1cf54ce1eaf4eda4b98ea2a0ecd7
vendor/lib64/libgcs.so|064ee3e7f9ddbb6ce12f06cbb044f090f7da7a6f
vendor/lib64/liblistensoundmodel2.so|64d81867135372eb81110eaa5af3aaff180700db

# Media - from S62Pro RKQ1.210406.002
lib/libFileMux.so|22005fb1595b2b76e199b82ff3790c1bc3d54a20
lib/libOmxMux.so|66ccc804301bccfbd17afb39a60131dd1a3fa9bc
lib64/libFileMux.so|8b31ad6706780a8e5225817d8bf8b683ba1523c5
lib64/libOmxMux.so|3c2fef1fc174bd93ebdc4cbeca9c4acc3731222e
system_ext/lib/libmmosal.so|d6e37a06ba103cd55208d74c32be47cea84d4009
system_ext/lib/libmmparser_lite.so|bc55c2911e7283992c8c2c67f651577743430fb6
system_ext/lib64/libmmosal.so|d0f37596108fb90b129edec4c6e8ba3648733498
system_ext/lib64/libmmparser_lite.so|d1fe802ac602fff3316bc32411014b0e53011fab
vendor/lib/libAlacSwDec.so|3a6d7dae2808dbe111ff4449b4e1e82560466ef3
vendor/lib/libApeSwDec.so|ff14ad2ebbabcd89278830d817e9aa6bdcb1799a
vendor/lib/libFlacSwDec.so|707dbc6b5d2890dc3bba22c00b372f0973baebda
vendor/lib/libI420colorconvert.so|c8e9a1fb33ae50f5b29c892c6edca2f7d9524af5
vendor/lib/libOmxAacDec.so|3bcfed25d66aab024faf8dbb9a06ce98270c24b6
vendor/lib/libOmxAlacDec.so|183cda27aaf922689c557cd9a76b68938e1748c9
vendor/lib/libOmxAlacDecSw.so|ff4b38dbead17dcd0c9a045f109fa4e92ca2992a
vendor/lib/libOmxAmrDec.so|ebe524b6682f7a9460078a1aa2b986c2c3430b68
vendor/lib/libOmxAmrwbplusDec.so|ac542cb28956ccab59f9491bacebc96f50a80309
vendor/lib/libOmxApeDec.so|dcde109eb585c194fdd80c1fe2d1b28614cd68a8
vendor/lib/libOmxApeDecSw.so|1014274fe2ad40b361a3adecae258161287500dc
vendor/lib/libOmxDsdDec.so|d265762dfc714d51379a27970b05f325dbe412da
vendor/lib/libOmxEvrcDec.so|28b401779d9ee45b0e94415faf9ac34c6fd200f0
vendor/lib/libOmxG711Dec.so|98cd3445efe4cdc5a92672de3e749d71e56f7466
vendor/lib/libOmxQcelp13Dec.so|ee6ede27923f04f4bb03b101bbf302e4df782945
vendor/lib/libOmxVideoDSMode.so|84c632ef31c4dd88c5e08f92ba02e3f29df09b35
vendor/lib/libOmxWmaDec.so|7fe5458ba5e19cd4c8422e910acbe6a6f6574c94
vendor/lib/libdsd2pcm.so|f9d2f26315764c27137bc375bb85b20fabe66ff9
vendor/lib/libmm-color-convertor.so|063b3772fb4c5b85877c35a50e667540cde0c7d6
vendor/lib/libmmosal.so|a2203f5be5dc1ee10d2f5da8f167a46acb0a660e
vendor/lib64/libAlacSwDec.so|9fbfad65ffca33e1ac480e9cb056467ac75a6d5a
vendor/lib64/libApeSwDec.so|76d3cc02ca1c3cdc3c71e57dc6e53027d2bf3d37
vendor/lib64/libFlacSwDec.so|002aa39927e75568efb81c7ae3a044c694babfc3
vendor/lib64/libI420colorconvert.so|b3eb95a4e43763c73ea8d4ea112fb683b69ed42b
vendor/lib64/libOmxAacDec.so|1dcce4cd8483cba47505dcc9b818c3ec4ac7cd9d
vendor/lib64/libOmxAlacDec.so|571f7bab2f9db816a4a64c47c82fa13ea2a4d7c2
vendor/lib64/libOmxAlacDecSw.so|159ea5d27936611107adf7355db760819bded68f
vendor/lib64/libOmxAmrDec.so|f130623d608cc62306726b5d30715277f1725040
vendor/lib64/libOmxAmrwbplusDec.so|3704f3ef3b0461a64c0991ab4f9c6bc90c54e8b5
vendor/lib64/libOmxApeDec.so|bca6ffd86a0fe0c126e60201e3b98c031ec33fb1
vendor/lib64/libOmxApeDecSw.so|1536b0c27fd161e845f6615f73792fa66cf7027e
vendor/lib64/libOmxEvrcDec.so|8a27c85dd54f269a9ba6b41f3a1c1b63e9ae2ea9
vendor/lib64/libOmxG711Dec.so|e4da88215c05daabb5928ad0177fb70ca9666474
vendor/lib64/libOmxQcelp13Dec.so|5a8e892912cd56c74b72420ea4fea62918bf260e
vendor/lib64/libOmxWmaDec.so|5e066058c563101048e0ded7041cf4ad8ea63fe8
vendor/lib64/libmm-color-convertor.so|d7404046e5863a87922b35c3ff3edc5e76d6c249
vendor/lib64/libmmosal.so|595faff0767dc2bd0a344a98ab65a239bed14826

# NFC
vendor/lib/libpn553_fw.so

# Perf
vendor/bin/hw/vendor.qti.hardware.perf@2.0-service
vendor/bin/msm_irqbalance
vendor/etc/init/vendor.qti.hardware.perf@2.0-service.rc
vendor/lib/libperfconfig.so
vendor/lib/libperfgluelayer.so
vendor/lib/libqti-perfd-client.so
vendor/lib/libqti-perfd.so
vendor/lib/libqti-util.so
vendor/lib64/libperfconfig.so
vendor/lib64/libperfgluelayer.so
vendor/lib64/libqti-perfd-client.so
vendor/lib64/libqti-perfd.so
vendor/lib64/libqti-util.so

# Perf Configs - from LA.UM.9.12.r1-10800-SMxx50.0
vendor/etc/perf/commonresourceconfigs.xml|459a18579580713fd839f93c86d6b1f7f028be1e

# Perf-Configs - from X00TD - (Modified for K4.19)
vendor/etc/perf/perfboostsconfig.xml|1b925efc5be95c1fbcec228a609ffa59b1f6ecc9
vendor/etc/perf/perfconfigstore.xml|93c6416f3347a0b2cff778ba6d6a58873514bdc9
vendor/etc/perf/targetconfig.xml|376ae331df9d6c30b6208f25d04ae4ea11c0e2ea
vendor/etc/perf/targetresourceconfigs.xml|50eb2e60eb50a1d27b476c7aeb98ecb612df7eee

# Peripheral manager - from LA.UM.9.12.r1-10800-SMxx50.
vendor/bin/pm-proxy|3182c937d93cc02c6721c053f57fc6794ad7edb3
vendor/bin/pm-service|d41dabf5e4830f93b267d668d37e72aedae48163
vendor/lib64/libperipheral_client.so|18796ea27c31bd39946f23f2b4173bafd26d9216

# QCC VND HAL - from LA.UM.9.12.r1-10800-SMxx50.0
vendor/bin/hw/vendor.qti.hardware.qccvndhal@1.0-service|7fc59359c94e5977cb549e4f9d56062bb9ecbc84
vendor/etc/init/vendor.qti.hardware.qccvndhal@1.0-service.rc|afeb332a4750a11587658fcc9a75a27f63bbccdd
vendor/lib64/hw/vendor.qti.hardware.qccvndhal@1.0-impl.so|760fe89c7d1faf5bfd3907c3cdfe830de85e8ba3
vendor/lib64/vendor.qti.hardware.qccvndhal@1.0-halimpl.so|db925aebfbee9403124547a26bab1f1e13f4fdb5
vendor/lib64/vendor.qti.hardware.qccvndhal@1.0.so|a776faac4fee084176b3c1f6f677521f04b8040c

# QCRIL - from LA.UM.9.12.r1-10800-SMxx50.0
vendor/bin/hw/qcrild|ad8316e9f0f42e67f9ee9d4bcc7943c5bc9a0087
vendor/etc/init/qcrild.rc|17cf4934bf443cf6469d8b3ff622eeb0e4a0aac6
vendor/lib64/deviceInfoServiceModule.so|a9b0dd9a206384c0600f2322c4a319582bd1cdfb
vendor/lib64/liblqe.so|b40774e09e79454c7c73070cf8b6c1026687f89d
vendor/lib64/libqcrilFramework.so|d979fadc854446adf69fe438f42146b707d4413a
vendor/lib64/libqcrildatactl.so|df2463988a2ec9459ba763f2df43903cf5878103
vendor/lib64/libril-qc-hal-qmi.so|4076592973bf6316736c2e5ffd6da32d9d3c3c26
vendor/lib64/libril-qc-logger.so|ebb3373e163a638b80879d2887a10c77349aaabf
vendor/lib64/libril-qc-ltedirectdisc.so|6143397c96d90e3234f4e4e895d29d2136f4e6dc
vendor/lib64/libril-qc-radioconfig.so|3698b568079f7011c987a43863c0aec72d6ff79c
vendor/lib64/libril-qcril-hook-oem.so|9e0c28db2403d5417cfa71fe53d0bb073fb5be11
vendor/lib64/librilqmiservices.so|5459471d4360503060eacf605309927a548635b0
vendor/lib64/libsettings.so|7f25f1d661a679e5f6f24d3a6c7933a1cd6009f5
vendor/lib64/qcrild_librilutils.so|543facba691c0fc301b241c5d84f86d1568045d5
vendor/lib64/qtibus.so|13ad11b54b01a8a0042ad2e0483daad0a1e604eb
vendor/lib64/qtimutex.so|d4266ff784736c68274d394212f965a1f389fa4b
vendor/lib64/vendor.qti.hardware.data.connection@1.0.so|7b16bf4f8d0269b69277d64a9cdb8898cd9f6c76
vendor/lib64/vendor.qti.hardware.data.connection@1.1.so|224b249fe2aa6b023957949e85a2f3984c2e64a9
vendor/lib64/vendor.qti.hardware.data.iwlan@1.0.so|3257c029d9fbff2807c38d4a01596459dfe03717
vendor/lib64/vendor.qti.hardware.radio.am@1.0.so|29dbca5c33ae2c767d2ef956281956e10b3d5d30
vendor/lib64/vendor.qti.hardware.radio.ims@1.0.so|86111e267cf1b04def39becd65624d44574b34fc
vendor/lib64/vendor.qti.hardware.radio.ims@1.1.so|6502468745835fe7c08a016a03ff7898633e981e
vendor/lib64/vendor.qti.hardware.radio.ims@1.2.so|66c6e9be74032f5a8c6608d794d457a67aa4bcfc
vendor/lib64/vendor.qti.hardware.radio.ims@1.3.so|98a087062461a02ec660cb1504c8a88ebd725d97
vendor/lib64/vendor.qti.hardware.radio.ims@1.4.so|ea2e8c80e0ddccf8133d2436260b9ce23c7568e6
vendor/lib64/vendor.qti.hardware.radio.ims@1.5.so|9773b67320eb65b999adb5db26e9f35d4d6f5934
vendor/lib64/vendor.qti.hardware.radio.ims@1.6.so|cbe9a1d0f3d2e48359bd42f625de5f8e6ee05934
vendor/lib64/vendor.qti.hardware.radio.ims@1.7.so|32394e0f8ca4f43984d048ec5044de8b85cc99ef
vendor/lib64/vendor.qti.hardware.radio.internal.deviceinfo@1.0.so|6f2a92a1a7d65e69148fe89c8df3f91a79169e2e
vendor/lib64/vendor.qti.hardware.radio.lpa@1.0.so|7e47c633ee8a4d7e1093285475dd7494beb1aede
vendor/lib64/vendor.qti.hardware.radio.lpa@1.1.so|9976121965168d77e861c16e2f0bb50ba66d7477
vendor/lib64/vendor.qti.hardware.radio.qcrilhook@1.0.so|1730430b29c9daf4df6addbbbf97b1ff575ad306
vendor/lib64/vendor.qti.hardware.radio.qtiradio@1.0.so|c18d1f84a397c748106f00203e6e3ef543f6f373
vendor/lib64/vendor.qti.hardware.radio.qtiradio@2.0.so|2dbf79fbb964216552a0088a02feb4817e9d409e
vendor/lib64/vendor.qti.hardware.radio.qtiradio@2.1.so|1d745f8496cf90857551aaa8c3fcea9db2432e3d
vendor/lib64/vendor.qti.hardware.radio.qtiradio@2.2.so|140251f5750c59b77425b008c7e355a36ca3371d
vendor/lib64/vendor.qti.hardware.radio.qtiradio@2.3.so|8cf8396c12020c136786bcac07cc851932c5ab08
vendor/lib64/vendor.qti.hardware.radio.qtiradio@2.4.so|ab2c568fa70abca633402234dd1b219ed7b7ea60
vendor/lib64/vendor.qti.hardware.radio.qtiradio@2.5.so|70e55ec332cedb9184de2d5ecb949e0f55b6a2b8
vendor/lib64/vendor.qti.hardware.radio.qtiradio@2.6.so|99b15c029b95082cfeb1d689bb77986f1857ab10
vendor/lib64/vendor.qti.hardware.radio.uim@1.0.so|925ca31b55e6c53ecef6e5b480dfc71f723b1982
vendor/lib64/vendor.qti.hardware.radio.uim@1.1.so|69da55115e7bc39105873e9ca95ffc4c92865149
vendor/lib64/vendor.qti.hardware.radio.uim@1.2.so|ca9cc474a8a5fe20860ed50c51e54704887c8e87
vendor/lib64/vendor.qti.hardware.radio.uim_remote_client@1.0.so|15d35481db092d924834fd81e7315e8f77780078
vendor/lib64/vendor.qti.hardware.radio.uim_remote_client@1.1.so|b3bd826c35a0aa8f8538a386805b6b656a193979
vendor/lib64/vendor.qti.hardware.radio.uim_remote_client@1.2.so|40357e0c4eb94dbfff070bdbb128c1c53941791b
vendor/lib64/vendor.qti.hardware.radio.uim_remote_server@1.0.so|1b18537d8c2881d712d9feb937d8266b686b04bf
vendor/radio/qcril_database/upgrade/0_initial.sql|e00b243261d8941802bdea9d4e659dc5e927c216
vendor/radio/qcril_database/upgrade/1_version_intro.sql|67b96cb3e94737bfe271b2519b9eb5fae17373a2
vendor/radio/qcril_database/upgrade/2_version_add_wps_config.sql|b4a825ba20fea3e2f20c7f02c8bd64596c24a75e
vendor/radio/qcril_database/upgrade/3_version_update_wps_config.sql|0571aacaf9fc0868c48bba2f7542f5b4e68c9022
vendor/radio/qcril_database/upgrade/4_version_update_ecc_table.sql|0734c6a2863edadc7a8422b8310d267c594d11a0
vendor/radio/qcril_database/upgrade/5_version_update_ecc_table.sql|fcb2cba3bfd718ecdc8d3cfac3a0b2b2c7e8c506
vendor/radio/qcril_database/upgrade/6_version_update_ecc_table.sql|0fdf4b6ccb48906b37885e060429f79c9fd6bdbf
vendor/radio/qcril_database/upgrade/7_version_update_ecc_table.sql|9a76d5747da2876b87b214579c9d74ae92d218d7
vendor/radio/qcril_database/qcril.db|7e9a9f2d58190f3b753cb5a2a857518c596ba9e2

# QCC-TR-UI - from LA.UM.9.12.r1-10800-SMxx50.0
-vendor/app/QCC-TR-UI/QCC-TR-UI.apk;PRESIGNED|dd6f103910138d6e76044c1a3989dceeff0a4ddc
vendor/bin/qcc-trd|46672f8a314bbe4b51d641d20c77059624dba584

# QDMA - from LA.UM.9.12.r1-10800-SMxx50.0
vendor/etc/init/init.qdmastats.rc|837b16bf9600715345fc65d5d6c98ce97f2d4583

# QMI - from LA.UM.9.12.r1-10800-SMxx50.0
vendor/bin/irsc_util|b3af449662e515f83c02d874a21a2a6cc9c9c7dc
vendor/bin/qmipriod|07515dc1c7af062251e7020899b2f87ddb5a58fa
vendor/bin/qrtr-cfg|067ab5bec427de6e3988f3e02ee08e79047f787f
vendor/bin/qrtr-lookup|092ac4e54474a3598f278eb0dee9d0ae2a0669d9
vendor/bin/qrtr-ns|a3c38a83113fd81746fd6d242f4aa55ec0b589e7
vendor/etc/init/qmipriod.debug.rc|94d421875f35fdcb170070f20a221466ad87f97e
vendor/etc/init/qmipriod.rc|94500dd5dc514fbb506ad8259a69ca57f4db72d6
vendor/etc/seccomp_policy/qti-systemd.policy|40bf52fb50a94eb8325beefe1927d9ba155fb02a
vendor/lib/libidl.so|766a221129a8e5558ec13d8fb1cdc4577f7b10ba
vendor/lib/libmdmdetect.so|31b458e0d407dd774caba8bf01a687e655d3782d
vendor/lib/libqcci_legacy.so|7433ef18c9f86858b72fb4bb956eab9efbafbc08
vendor/lib/libqmi.so|42603292f3de4835ede18dec8449b720ade57b3d
vendor/lib/libqmi_cci.so|4da3f8f41677cba3fffd4820be30a8406ed92c5b
vendor/lib/libqmi_client_helper.so|7f00d6faed2975bbd18ea24fc43ece917f3782f6
vendor/lib/libqmi_client_qmux.so|2c9802ee29d85581c01c75fb5cfafa77917933b0
vendor/lib/libqmi_common_so.so|debcc5644bd7b459f98b3e743db694938c791b1a
vendor/lib/libqmi_csi.so|f65cbe21c2a8d8e1d375aeacadb1f31d2818497f
vendor/lib/libqmi_csvt_srvc.so|a67d545aabf822797f0f893d127304b7f5b707e1
vendor/lib/libqmi_encdec.so|42f1d3da38170a5a69edaeb459db8425f455c625
vendor/lib/libqmi_legacy.so|1db712161edba636d9239e6826c34e8cc962f062
vendor/lib/libqmiservices.so|ba9e4920629b0abfc6131b8c7c2298a57996fdc5
vendor/lib/libqrtr.so|545d74fb62d03ecf834d9374e95620598d38ee3b
vendor/lib/libqsocket.so|c4cbaa2f1137630798f8a32ef03265b4f48893a3
vendor/lib/libsmemlog.so|68a492992457ea8d62bd3529cd69ec3d002108d4
vendor/lib/libsystem_health_mon.so|b43495b41d41130be0ebf4efe37e8aba66ce4ab4
vendor/lib64/libidl.so|a8a99d994c56d0db81be9e89bea071e2ff3a449c
vendor/lib64/libmdmdetect.so|f60a82febe07dedd99763a10c82322856e41a3ae
vendor/lib64/libqcci_legacy.so|0cde2aca79326145ea59bac4960052e506090bb8
vendor/lib64/libqmi.so|242f39f9f4411f51ce333f2c0435d82a2716a37d
vendor/lib64/libqmi_cci.so|d6a25788ef1e3f2d96a39226616c65666a5e86f7
vendor/lib64/libqmi_client_helper.so|0ab939a64a600fcfd1e96e13de5963f97d7a8983
vendor/lib64/libqmi_client_qmux.so|69fd430c5ce76cc5a3d8ce99cf1fedb852cf917f
vendor/lib64/libqmi_common_so.so|ce3ca89a2a128d3a66caa4dda6fa697ed128da6b
vendor/lib64/libqmi_csi.so|facd22e9dd8555a4e3bcc1d6463a88141a39039d
vendor/lib64/libqmi_csvt_srvc.so|ef3737a403bcf7b296adedad67fddef6ee7a5d36
vendor/lib64/libqmi_encdec.so|a4531595471e8df68d75e410a1fc4f4f1a3ec2e3
vendor/lib64/libqmi_legacy.so|44da82a222d0a7c9d702caabf62a980b7163e62f
vendor/lib64/libqmiextservices.so|67c3409090740a9bbdcfedce97353bf4773007fe
vendor/lib64/libqmiservices.so|478c3c00422bb468633273a372a71d7b0d22a890
vendor/lib64/libqrtr.so|a4530465dbcdb504bed2c50b7c37bf50170d040d
vendor/lib64/libqsocket.so|25416e1927102940818827713fbfa8ca36f084c0
vendor/lib64/libsmemlog.so|1c435a561a53d47e805d47dc114e1202702db05e
vendor/lib64/libsystem_health_mon.so|09f3fb5c23a8e19045bc2d8a94103399ef609837

# QSEEcom Hal - from S62Pro RKQ1.210406.002
vendor/bin/hw/vendor.qti.hardware.qseecom@1.0-service|d3d6ed383483747f8bec574adcac1c24ef1ac3a4
vendor/etc/init/vendor.qti.hardware.qseecom@1.0-service.rc|0f43244d70d5efc1e4f089b926a9dc4f59e53db1
vendor/lib/hw/vendor.qti.hardware.qseecom@1.0-impl.so|6b3246eaacad1ef332e3deb1c980265ddf263a57
vendor/lib/vendor.qti.hardware.qseecom@1.0.so|11517c93d45920f8e2f67e3696574b6099711142
vendor/lib64/hw/vendor.qti.hardware.qseecom@1.0-impl.so|c76c8b6856cd1800fd170c85f38474ce4d2ac095
vendor/lib64/vendor.qti.hardware.qseecom@1.0.so|1b4c92c07ed5ba3f053e10a11f2bc1232ad45375

# RemoteFS - from LA.UM.9.12.r1-10800-SMxx50.0
vendor/bin/rmt_storage|e451381c339376c1e40b3e6899a8e9a76af5c054
vendor/etc/init/vendor.qti.rmt_storage.rc|bc212c6353c2ded44ae4d759605fbbe55aa4fa3f

# IMS - from LA.UM.9.12.r1-10800-SMxx50.0
vendor/bin/ims_rtp_daemon|6fce676ce5b64043539050cb73d281ddfd1c15b8
vendor/bin/imsdatadaemon|cbe7b46af4933c8e94fea493c8b34b9b0eb412fb
vendor/bin/imsqmidaemon|4c2d846d121bb6b13878a67d5c7a8700ea04cbc6
vendor/bin/imsrcsd|be936a9b0bfee5dc22b0b21b1f747dfe3f41e8af
vendor/etc/init/dataadpl.rc|cd4907d9bfd438fe5f5c86f5d6cec590ac0bac2a
vendor/etc/init/dataqti.rc|6abfd1a850d782adbbb6f42c9d8ca870036b2ad1
vendor/etc/init/ims_rtp_daemon.rc|06510e936890f51aeb76f2cf3ed5dbe45e67ac20
vendor/etc/init/imsdatadaemon.rc|29face37c174aebcd1358f7d7ad0bd4baf83063b
vendor/etc/init/imsqmidaemon.rc|dda16d842b7c65296e97bc9921b723a43b152ba3
vendor/etc/init/imsrcsd.rc|2dc42ff6e4b6dd389bd3bc9a7af30dec2f1a45df
vendor/etc/seccomp_policy/imsrtp.policy|7ea8b4012da7bde98fc91bd882185b32784793cc
vendor/lib64/com.qualcomm.qti.imscmservice@1.0.so|06192e21da7790664eda2a98aeab74c9dcf97468
vendor/lib64/com.qualcomm.qti.imscmservice@2.0.so|d46c1c93cbfba5bacc8b9f7d0c00378f082d2d4d
vendor/lib64/com.qualcomm.qti.imscmservice@2.1.so|fd67423491d800145014b0e603f8773fad6461f2
vendor/lib64/com.qualcomm.qti.imscmservice@2.2.so|d9947b0009c4823c669734522517c20019617a33
vendor/lib64/com.qualcomm.qti.uceservice@2.0.so|9a350a3c5673217b835993b559b142b000d99954
vendor/lib64/com.qualcomm.qti.uceservice@2.1.so|d073e272509a3d9b44d1623199cb2434f54748cb
vendor/lib64/com.qualcomm.qti.uceservice@2.2.so|07fca2c870d83138e6b3776a99a589f48a9e09a2
vendor/lib64/com.qualcomm.qti.uceservice@2.3.so|1fc190434eb28684f7c45917dbc3bbe82b42b908
vendor/lib64/lib-imscmservice.so|e09de1f4d61956dba7f001084019e5ca04a64550
vendor/lib64/lib-imsdpl.so|9bd40bbaf215464b7e4113600ef7b43d89e8a554
vendor/lib64/lib-imsqimf.so|49972402f69fc1bc9a077e895a6b9bd55a2bc635
vendor/lib64/lib-imsrcs-v2.so|ce61441164fc4ad579f78a72405d5cdbe5480ba1
vendor/lib64/lib-imsrcsbaseimpl.so|1d5317a8432c6bc2ac18d4c4e264e1fd6e18b7cf
vendor/lib64/lib-imsvtcore.so|1c585a7c4515b16c43a5b074cda875c4649aa288
vendor/lib64/lib-imsxml.so|383df770e88d02ac8933f4fb7c6d4e8d157b2718
vendor/lib64/lib-rcsconfig.so|a040d81a6d790ed70df3d1a516508b734b928116
vendor/lib64/lib-rtpcommon.so|07813181cce0f402f486161d88587cd343393ff1
vendor/lib64/lib-rtpcore.so|dca81e8e9964ab33ba4b314ae5d3d58f435f9f3b
vendor/lib64/lib-rtpsl.so|217db51a3dfd42fc4d29734f9db46498e7e62236
vendor/lib64/lib-siputility.so|3736bd3f681fe3c0cfa9dd8e41fcad2d4b43d6d2
vendor/lib64/lib-uceservice.so|b6c98f854048976ecec2b1af3beeace1023d561d
vendor/lib64/librcc.so|4c7dceb783eeb389fd5f68ec439fbc648db962a6
vendor/lib64/vendor.qti.ims.callcapability@1.0.so|b4b2b24e79a25e96f9a51bdbad0974acc3f99ee2
vendor/lib64/vendor.qti.ims.callinfo@1.0.so|98faf5b37cecd1cb9be690851affeffe4e940c6d
vendor/lib64/vendor.qti.ims.factory@1.0.so|7488d6797be4ee2850086c36f916aa169616a1f3
vendor/lib64/vendor.qti.ims.rcsconfig@1.0.so|9a4d7f9f309f41f607c808fc6381ea2851385ce2
vendor/lib64/vendor.qti.ims.rcsconfig@1.1.so|b6a827ea34668fa7a90f0a426d02f4062a8ca8d1
vendor/lib64/vendor.qti.ims.rcsconfig@2.0.so|9e60e5ec4b410cd30d88b99622d93719650d2c43
vendor/lib64/vendor.qti.ims.rcsconfig@2.1.so|d047741471536342cb577914d9fd6b0f12aff928
vendor/lib64/vendor.qti.imsrtpservice@3.0-service-Impl.so|1a3fdc8643a3a48e05cc0ab701facf214e29bb55
vendor/lib64/vendor.qti.imsrtpservice@3.0.so|cde0ea7b6306be140510fea42f7d6f4fedb859b0

# Latency - from LA.UM.9.12.r1-10800-SMxx50.0
vendor/lib64/vendor.qti.hardware.data.latency@1.0.so|c7267852e7539ec85cce18ee04d7cffa97e7027f

# PD - from LA.UM.9.12.r1-10800-SMxx50.0
vendor/bin/pd-mapper|25b0f683607ee50ed769e75fb499f70f58af9474
vendor/lib64/libpdmapper.so|9c11a6b00893b0976e03dac79649942db178734d
vendor/lib64/libpdnotifier.so|1f789b879a7ca8454283de6572af10fdecd9a077

# Sensors - from S62Pro RKQ1.210406.002
-system_ext/framework/vendor.qti.hardware.sensorscalibrate-V1.0-java.jar|01d8f70b5687082dd9d19beca565a789d404837c
system_ext/lib/vendor.qti.hardware.sensorscalibrate@1.0.so|5ce25016e9dc0330ac1fdf2a27c87149026181f9
system_ext/lib64/vendor.qti.hardware.sensorscalibrate@1.0.so|c69108a5df9cbce547b7d2b5605357ac37a8b916
vendor/bin/sensors.qti|04d11860e030b6176056b6e862b9e4ee9ba2289a
vendor/lib/hw/activity_recognition.sdm660.so|005b4c0d3dfd4c2bd4361b8c8754314a8c4de40d
vendor/lib/hw/sensors.sdm660_64.so|38e7ca45842f4cee7de1bb725d0f7ea5bf8a1d23
vendor/lib/libsensor1.so|0b74f64339245b2bb9e08aa97a78bd8d344463c5
vendor/lib/libsensor_reg.so|40a7b8e675352be825806017766b4fed3a3e128d
vendor/lib/libssc_default_listener.so|be24607aff00788853c84dfe10ff3bbb46f7d1d0
vendor/lib/sensor_calibrate.so|1fcb2b873e2b3a3585b12daa648229c2e0f25f55
vendor/lib/sensors.ssc.so|7cbe5294892d5b7a514141f6a902f1d9f1b1ca6a
vendor/lib64/hw/activity_recognition.sdm660.so|d121abfadb5798cdb5620350b7a35322018dd5bb
vendor/lib64/hw/sensors.sdm660_64.so|6ddf50aa905f18674d1ffeec9e1c4258ef75740f
vendor/lib64/libsensor1.so|9438649176e37dfa406f4d4858ad31441ad4c3aa
vendor/lib64/libsensor_reg.so|c09110fd11f384040c31b7fd5c2b187aa901168c
vendor/lib64/libssc_default_listener.so|995c90b8f6472a37538747bde85d3de79ff1afdd
vendor/lib64/sensor_calibrate.so|af1d03ac5ea1f0b26e7359b6ad3fde6544330339
vendor/lib64/sensors.ssc.so|6934f0fd9e5e74356d9f18af0cbaa28164e697f6

# Sensor(Native)
vendor/lib/sensors.native.so
vendor/lib64/sensors.native.so

# Soter - from S62Pro RKQ1.210406.002
vendor/bin/hw/vendor.qti.hardware.soter@1.0-service|a6f1c35671a2f102ff95acecc70eefa3a7ebd432
vendor/etc/init/vendor.qti.hardware.soter@1.0-service.rc|76447a61ad5529949365eeb7e8ca000e48bd28ae
vendor/lib64/hw/vendor.qti.hardware.soter@1.0-impl.so|032e38d60840b5ac7ca21eece486ca5acab7f203
vendor/lib64/vendor.qti.hardware.soter@1.0.so|5496f7816036ef71aec0116864032f8a6078aee7

# SSR - from S62Pro RKQ1.210406.002
vendor/bin/ssr_diag|6f4de47ac2687bb4bc0feb717fd34c2bf3c97a48
vendor/bin/ssr_setup|06ccf2d2f01d27cb63ab34d5e8978013ce46807f
vendor/bin/subsystem_ramdump|a8188725e6ab33effdb220dffdaac3eb830b1dc2
vendor/lib/libsubsystem_control.so|da82bb63993a186c067de0ccd6ec0e165bb36a5e
vendor/lib64/libsubsystem_control.so|3ae879485eedb7d1bc84a47ddef474608ddb4d3e

# Telephony (System) - from - LA.QSSI.11.0.r1-12400-qssi.0
-product/app/CallFeaturesSetting/CallFeaturesSetting.apk|e4b1ccf87b76f5a50c886188d63c2ce71f9ae337
product/etc/permissions/telephony_product_privapp-permissions-qti.xml|42f4553b61731e56d253766554d4479519cea3ff
-system/framework/tcmclient.jar|cdd1ea7143a5a7acc3909b5cfa706650179647c7
-system_ext/app/ConfURIDialer/ConfURIDialer.apk|2c620d7f948e17d2f9990a038768b1906b4e3055
-system_ext/app/ConferenceDialer/ConferenceDialer.apk|91269c1e4ac6f65f477e07427bb507c325da2fbc
-system_ext/app/DeviceInfo/DeviceInfo.apk|46b8cbace442f013dc447a504a4583035e225318
-system_ext/app/DeviceStatisticsService/DeviceStatisticsService.apk|e63b0fd0b2b67160b231b60209821f450833e4cc
-system_ext/app/DynamicDDSService/DynamicDDSService.apk|502329cf448eb3b7e2736fcad59e4eacc48f93e6
-system_ext/app/NetworkSetting/NetworkSetting.apk|15a642f6557d9fa52edd55a563d26d5b1734d234
-system_ext/app/QTIDiagServices/QTIDiagServices.apk|b1a8d4ca6727e712c711cf7e61b776f80712bf2d
-system_ext/app/QtiTelephonyService/QtiTelephonyService.apk|a32f88ddcc8f9cba18aa5697ee5bd52201e89b13
-system_ext/app/SimContact/SimContact.apk|bdd9d9a7accd4cda9c71bd8abce6de8a7a451226
-system_ext/app/SimSettings/SimSettings.apk|ae2a4437e56d3b8453e20f4160ae54374b1ec7db
-system_ext/app/atfwd/atfwd.apk|51ac329b50b9ce858c67cef69e93cb527508f8c4
-system_ext/app/embms/embms.apk|010db3d97f4faad191f1a53415d7cf0a94dabcd1
-system_ext/app/imssettings/imssettings.apk|8b47c43d56228dcce93cc8c07c6ceb08cb3d2fe5
-system_ext/app/remoteSimLockAuthentication/remoteSimLockAuthentication.apk|3ec7ba081138560b1d0dd3ba78fd3898127a76a7
-system_ext/app/remotesimlockservice/remotesimlockservice.apk|ee57aef8dc460f9597ddf5c08639d4d7388fc514
-system_ext/app/uceShimService/uceShimService.apk|ad03fd6449513ac27f1933b0a0a05275e6c1fd58
-system_ext/app/uimgbaservice/uimgbaservice.apk|8274ebfc8be1db6f1358579c8084c833067b4023
-system_ext/app/uimlpaservice/uimlpaservice.apk|a2b48d62e865be50b338eaa783d45004ab7f44dd
-system_ext/app/uimremoteclient/uimremoteclient.apk|e4ab8f9243f51abc01c22b8aa583920453897aaf
-system_ext/app/uimremoteserver/uimremoteserver.apk|b366ec7e174e0c395f443ea61dbbb352a1be12b2
-system_ext/app/xdivert/xdivert.apk|c2b4f8b3cce92e7e095433f27516176333f71e90
system_ext/bin/diag_callback_sample_system|f6342f44e9294bda3381df5b365fb365d4730d2c
system_ext/bin/diag_dci_sample_system|9c863c74f7d761092695d42609417611e05fe711
system_ext/bin/diag_mdlog_system|41a7112d3806c1c3f85361d58765afbe4e3f21ce
system_ext/bin/dpmd|e04b54867d3c1c5e6622e41bc052529a81c82e3c
system_ext/bin/test_diag_system|b9c2117b83070269446aa14d83dc8b3ad6b65299
system_ext/etc/dpm/dpm.conf|95e27da8c989e96c6faea6f0697bce11955b62a5
system_ext/etc/init/dpmd.rc|738b638ff04cda368e22c03e16baf90ba157a6fc
system_ext/etc/permissions/RemoteSimlock.xml|4232db05c6ad81466c7bad8816d7f5428672704c
system_ext/etc/permissions/RemoteSimlockManager.xml|66080efd74f7c85922e248087434bfbb6b1b18a0
system_ext/etc/permissions/UimGba.xml|50859c150aa2c5b9f2de40ce6ff68f8d201c77b6
system_ext/etc/permissions/UimGbaManager.xml|38abcdb5cdb43a30e55044887b53107af4133b04
system_ext/etc/permissions/UimService.xml|1ae50bdfe1ba181bbe2a5bf02249dec5b1930a68
system_ext/etc/permissions/com.qti.dpmframework.xml|c4b7ad0879d00c1eba4f3fe3a88ddb8aa153629a
system_ext/etc/permissions/com.qualcomm.qti.imscmservice-V2.0-java.xml|bd9fc166b542b4e730f194ebc996957770d9d497
system_ext/etc/permissions/com.qualcomm.qti.imscmservice-V2.1-java.xml|b40fc74f7d5e58b4e918f952b89a79cf2a5c4088
system_ext/etc/permissions/com.qualcomm.qti.imscmservice-V2.2-java.xml|bfceff47fb0b55a418bed71de6050d876a776ac7
system_ext/etc/permissions/com.qualcomm.qti.imscmservice.xml|db25ef24f1937366d58a53b4f4b8923bc9e98d2d
system_ext/etc/permissions/dpmapi.xml|9158c9789cc7135a685b3fb27f8cc27108b51fef
system_ext/etc/permissions/embms-noship_product_privapp_permissions_qti.xml|fe893ef12f3fe036e3d462e010f031b94f218e38
system_ext/etc/permissions/embms.xml|22e7474091f9f71f02dd0cfc76cfa8848a46f079
system_ext/etc/permissions/lpa.xml|616bb190e6020c307049932346e55a7363dfee34
system_ext/etc/permissions/qcrilhook.xml|30397e293b2c40e6b7a1d11c2a615cdd05de625a
system_ext/etc/permissions/qti_libpermissions.xml|593bcb72cce68ceb0a70f50bcae7d460114e7c62
system_ext/etc/permissions/qti_permissions.xml|e6ff4572352b1a4f91b6b9d7cbb1cad9924410a0
system_ext/etc/permissions/telephony_system-ext_privapp-permissions-qti.xml|4f0056403f56928b8c75a617ba582f17061f89ae
system_ext/etc/permissions/telephonyservice.xml|b7831598d3c19c6ce4ef431d1cc44d94c3c35a8d
system_ext/etc/permissions/uimremoteclient.xml|e495591644efcac1310cfb065088c3b9709ab511
system_ext/etc/permissions/uimremoteserver.xml|99e292b0d73718a89a586f9803205dac014ff508
system_ext/etc/sysconfig/qti_whitelist_system_ext.xml|e34b3affaef4e4ee135cbeec8d7c3e8c6cfd65ce
system_ext/etc/cdma_call_conf.xml|d1ae6bf84ec5b68ea6659d6b0558835af69aa8c0
system_ext/etc/spn-conf.xml|ac8a0750445f66091e7e77928fc055ff50369f42
-system_ext/framework/ActivityExt.jar|62d343894ce13f42e5338f2263f1fbbb6ab042b2
-system_ext/framework/com.qti.dpmframework.jar|96a29e28b3abffb9223daadd67459e3f5a3271df
-system_ext/framework/com.qualcomm.qti.imscmservice-V2.0-java.jar|bc9bce9bcc7250bfba907db6a16b74a92bcb8e38
-system_ext/framework/com.qualcomm.qti.imscmservice-V2.1-java.jar|13df5f82893912b9c040fa72ff2ca97ebc6023b6
-system_ext/framework/com.qualcomm.qti.imscmservice-V2.2-java.jar|b95b2b4dccd365ae7b09b8982b61184fe82630f7
-system_ext/framework/com.qualcomm.qti.uceservice-V2.0-java.jar|e373bf8dddb0a7b79e36653c22637666cef296be
-system_ext/framework/com.qualcomm.qti.uceservice-V2.1-java.jar|7a073d87c95fb3c65fd5a9b1454d20b38f8e258f
-system_ext/framework/com.qualcomm.qti.uceservice-V2.2-java.jar|275b1cd69af00c3668376359f73b28b41ca0a473
-system_ext/framework/com.qualcomm.qti.uceservice-V2.3-java.jar|c9f201e6045a9a2a0b72ecb8a1afe95644e9d758
-system_ext/framework/com.quicinc.cne.api-V1.0-java.jar|31ba1bfae2830f87e77844cfb96913271dac0925
-system_ext/framework/com.quicinc.cne.api-V1.1-java.jar|e71f1a060bc65eb373beb6d33158c0e2b37e2a70
-system_ext/framework/com.quicinc.cne.constants-V1.0-java.jar|e0e0bb8ed025b0682483c395de6ec42b5b3c0058
-system_ext/framework/com.quicinc.cne.constants-V2.0-java.jar|12730a1700afbe8afa6534d4e10ade07808b5398
-system_ext/framework/com.quicinc.cne.constants-V2.1-java.jar|d10a6f1bcef5e9b0e2b0afab69203b4b67fb1217
-system_ext/framework/dpmapi.jar|2e2fbe2257a697b96a644c774136da0554430d3f
-system_ext/framework/embmslibrary.jar|b5fe26c1cea597af8a1751332d187f2f574816c1
-system_ext/framework/qcrilhook.jar|f2888f922b8347417dfa86741feb8348795fce6f
-system_ext/framework/qti-telephony-common.jar|1c6a36ec17c426cac1770415d2315a3ea82c8daa
-system_ext/framework/remotesimlockmanagerlibrary.jar|964306688a3062d0ec507e471d2f4a1a1911e765
-system_ext/framework/uimgbalibrary.jar|60a64011ce419cd980aaa58bfe131b79ff616b69
-system_ext/framework/uimgbamanagerlibrary.jar|881baefa00e98f7d25ed33b7ec69e1f0eb821039
-system_ext/framework/uimlpalibrary.jar|b65628aec6207b522bdbb0d7799afd09bf58ed7b
-system_ext/framework/uimremoteclientlibrary.jar|1180f769b0b5f9ac8f17d6ff2ebde8d745e4c125
-system_ext/framework/uimremoteserverlibrary.jar|37e77edf075231df7ba91e787f1a78abac2cf717
-system_ext/framework/uimremotesimlocklibrary.jar|d0be1e72b13ffb6d29ebdac5090a0d5986edd2ba
-system_ext/framework/uimservicelibrary.jar|9b378e397c46451a1c5a1a9e687b2c698916452c
-system_ext/framework/vendor.qti.data.factory-V1.0-java.jar|c8ec0ab32ebddd7dea5fbaac434061068474b68d
-system_ext/framework/vendor.qti.data.factory-V2.0-java.jar|69b3b2eb56857ee632ed611df41a94d7afb2c5ca
-system_ext/framework/vendor.qti.data.factory-V2.1-java.jar|59ede14468c62ec4ebbc8d3a683095266d5f1baa
-system_ext/framework/vendor.qti.data.factory-V2.2-java.jar|bcb39fccdae648797ae56165f867bdefe1e00dd7
-system_ext/framework/vendor.qti.data.factory-V2.3-java.jar|4368c35088f7b42e6911a2748d2ce7acc35e1a9b
-system_ext/framework/vendor.qti.data.mwqem-V1.0-java.jar|4db6298c05ec575261b32919f4462a934d9844be
-system_ext/framework/vendor.qti.data.slm-V1.0-java.jar|cafa6d149b535e815961fc075db75cc34d48c17f
-system_ext/framework/vendor.qti.hardware.data.cne.internal.api-V1.0-java.jar|bcaa5cec38cd357f4618fc619317207e4430b307
-system_ext/framework/vendor.qti.hardware.data.cne.internal.constants-V1.0-java.jar|e82ea6137b19e40028c78a70c7394eccdbef000b
-system_ext/framework/vendor.qti.hardware.data.cne.internal.server-V1.0-java.jar|57dff50e53f221494da0f990b65d1cb0654a305b
-system_ext/framework/vendor.qti.hardware.data.connection-V1.0-java.jar|c6e5d125ce87fa585eb666b82642c565501eb4c1
-system_ext/framework/vendor.qti.hardware.data.connection-V1.1-java.jar|ebb1435d9dd340b5ff7d5f94644da6a29824ab15
-system_ext/framework/vendor.qti.hardware.data.dynamicdds-V1.0-java.jar|da83f28bb82ca6cb016612ff126aba2123e3516a
-system_ext/framework/vendor.qti.hardware.data.iwlan-V1.0-java.jar|b776f0042dbb7fb5f6619dbc5b97c42248b4e4f2
-system_ext/framework/vendor.qti.hardware.data.latency-V1.0-java.jar|68068cdbd044dca2872284ebcd2909eb74c3a804
-system_ext/framework/vendor.qti.hardware.data.lce-V1.0-java.jar|3aafde85be8e733876ec862e75b4e74f8163d273
-system_ext/framework/vendor.qti.hardware.data.qmi-V1.0-java.jar|ff9d6d52309ce32124af851eacd82de8de7d2e12
-system_ext/framework/vendor.qti.hardware.mwqemadapter-V1.0-java.jar|78646a577d555e5639b77fbc933a63537a493152
-system_ext/framework/vendor.qti.hardware.slmadapter-V1.0-java.jar|5e949746a17bc97f9703afdad218f8e4a6fc1449
-system_ext/framework/vendor.qti.ims.callcapability-V1.0-java.jar|3cdfb07c3f33bf6ea1cfac52bd125f959995872a
-system_ext/framework/vendor.qti.ims.callinfo-V1.0-java.jar|3993d8d98969d0eaa7b5676128e85718588677d0
-system_ext/framework/vendor.qti.ims.factory-V1.0-java.jar|cd039a9c8d919332d57f9945a92ccac21f20d6c5
-system_ext/framework/vendor.qti.ims.factory-V1.1-java.jar|ab9114d0a99a7155d625ff04bf8d20a03fdfc10f
-system_ext/framework/vendor.qti.ims.rcsconfig-V1.0-java.jar|abbfa2c4003a0b6e4906225c623c7d001ed6258a
-system_ext/framework/vendor.qti.ims.rcsconfig-V1.1-java.jar|f0348553c3c777d53725d6d4d55fa9c218d8ee49
-system_ext/framework/vendor.qti.ims.rcsconfig-V2.0-java.jar|dc0be9b3621fdaa8eaf8d4fad5c8d2365c9beef8
-system_ext/framework/vendor.qti.ims.rcsconfig-V2.1-java.jar|af9770ca830ad0228890254ae0d735993e0af22c
-system_ext/framework/vendor.qti.latency-V2.0-java.jar|239a5cf7f057d3e93c0fe7cb33ee6be088ad2aac
-system_ext/framework/vendor.qti.latency-V2.1-java.jar|b292cd4c9b1140ebc3cb6873106389483214eee2
system_ext/lib64/com.qualcomm.qti.dpm.api@1.0.so|6c43ecc5fb917872c91a5e46ce826bba4b767be3
system_ext/lib64/com.qualcomm.qti.imscmservice@1.0.so|19fba7c8c96605d3b74f9ebbe218d6de8bd87c81
system_ext/lib64/com.qualcomm.qti.imscmservice@2.0.so|ac182fee5bc8ed8426599dbb469f24b924729e45
system_ext/lib64/com.qualcomm.qti.imscmservice@2.1.so|dffd121df7fb8a08c47ee038627e6351f6208f02
system_ext/lib64/com.qualcomm.qti.imscmservice@2.2.so|16d860a215bfccf593e66b14be2b7cee5b95a8cd
system_ext/lib64/com.qualcomm.qti.uceservice@2.0.so|a50b7fd74058134e20e4c47802361ff944afcbcf
system_ext/lib64/com.qualcomm.qti.uceservice@2.1.so|a7ae812ed1237f17550041a089b257d84179ac22
system_ext/lib64/com.qualcomm.qti.uceservice@2.2.so|4c470cf8078f9f430961febae1bd65024bbed7eb
system_ext/lib64/com.qualcomm.qti.uceservice@2.3.so|98fdff77c5de51375b06268059f53c9a102b0767
system_ext/lib64/com.quicinc.cne.api@1.0.so|1aaa474fe03cd6e367b7199e06de1a8929ef3e30
system_ext/lib64/com.quicinc.cne.api@1.1.so|6210a1fe25395e20484ecf64ccef177fca2d477f
system_ext/lib64/com.quicinc.cne.constants@1.0.so|12c40df01864304ff059a315ced7374f4f9b64df
system_ext/lib64/com.quicinc.cne.constants@2.0.so|757537226ec3b8fd65f9f08296e66ba7d04b6976
system_ext/lib64/com.quicinc.cne.constants@2.1.so|f5a7eafd9e2f269902098b333b4a1602c1e5c072
system_ext/lib64/lib-imsvideocodec.so|79ac6b3cd5835d54e20219e71c91a1205e340f95
system_ext/lib64/lib-imsvt.so|f795cc87119b49587dbb1f3e4349fcf67b0610ed
system_ext/lib64/lib-imsvtextutils.so|50a092eb7b490f4307bddb3d5a4c595b458bc503
system_ext/lib64/lib-imsvtutils.so|594714eb04346ca3e864b022251f866f85f0393d
system_ext/lib64/libDiagService.so|d9a4cce20b357e382e24d5495bbd57ba4d3b14c6
system_ext/lib64/libdiag_system.qti.so|d9f85d57cad3342e6628e29d16992e3db0d75b0c
system_ext/lib64/libdiag_system.so|c9e58367857a8e62a2c8c7da64a95745301cdd35
system_ext/lib64/libdpmctmgr.so|68cfd00ab275a298b17515c0abd059b48e1f91c2
system_ext/lib64/libdpmfdmgr.so|c76fa9c50ba139094b66ab918676ae0a524eda13
system_ext/lib64/libdpmframework.so|a9c419481262c5173b1eb0602a896fde638f8a22
system_ext/lib64/libdpmtcm.so|653a713295c2445f242f2d873f47d679d027918d
system_ext/lib64/libembmsmmosal.so|419b6ab7b400e927df163cf2dc1cb341a42b9150
system_ext/lib64/libembmsmmparser_lite.so|a8d64ba654940237e17c1473c37bfa2266b6a77b
system_ext/lib64/libembmssqlite.so|e106b2d4a07ee75a273782191186b19bc25587c7
system_ext/lib64/libembmstinyxml.so|54af1f8fbcd85534a5c059d6a2f6a7065bc1103a
system_ext/lib64/libimscamera_jni.so|140dba66979472050d044958f2aaed537d18cdc2
system_ext/lib64/libimsmedia_jni.so|d06732d17342e445477ba508ae575263dc2096cb
system_ext/lib64/libjnihelpers.so|ff22879be6902a42dcdfedfaf35802605ebec895
system_ext/lib64/libmink-sock-native-api.so|faefc21ed9fda0c2432cdb8082ce1968f8c1f9a3
system_ext/lib64/libminksocket_system.so|6d639daf9fa8b459bf759144bdf2460ed0d3058a
system_ext/lib64/libmmrtpdecoder.so|b357af14455971d9f126a109d0214b63661dba40
system_ext/lib64/libmmrtpencoder.so|31bdf1aeb6f5c183fc9fb2e63acc3a42f79759fb
system_ext/lib64/libmsp.so|4ba8b2dddf13cb971e4c1d9bfb199c7cc7aeb776
system_ext/lib64/libmwqemiptablemgr.so|acd67ff252e34691a9f5ad3e1d00833c747e30c0
system_ext/lib64/libqmi_cci_system.so|5b94731c71d5b6ca7b4f95ee4a490fb8d9004563
system_ext/lib64/libqmi_encdec_system.so|0683624150f22b973301654ad98c843568a169da
system_ext/lib64/libtrigger-handler.so|80810dd8ebb6ec221079fa1ef34e1891837305b5
system_ext/lib64/libupdateprof.qti.so|5969a50eb0c2a5ceecea426b4624f52b8bbfada2
system_ext/lib64/vendor.qti.data.factory@1.0.so|8ca815106e871e704e298a17d0413ab63e562bac
system_ext/lib64/vendor.qti.data.factory@2.0.so|5729a1785652ff68c9a766c6589e317a0dfa69b4
system_ext/lib64/vendor.qti.data.factory@2.1.so|1311c0142c633b4d35f75509d003fa1a285b7410
system_ext/lib64/vendor.qti.data.factory@2.2.so|799b2bd76045b0acdeb09da261c1d121a0e94bfc
system_ext/lib64/vendor.qti.data.factory@2.3.so|f85a1df6e9434979e9082183a968590ca32681ea
system_ext/lib64/vendor.qti.data.mwqem@1.0.so|55b7daa6592960cd0a2bd94a772689a933c4456f
system_ext/lib64/vendor.qti.data.slm@1.0.so|256de877ff19caaa33e1c1e47d3ea91b63dc8341
system_ext/lib64/vendor.qti.diaghal@1.0.so|dc7a55a2182a1767ed98cc646153a2088322d508
system_ext/lib64/vendor.qti.hardware.data.cne.internal.api@1.0.so|d4fcd636ca3db00b61952e837bd8df64c155b82a
system_ext/lib64/vendor.qti.hardware.data.cne.internal.constants@1.0.so|97f1d06cb5321701a10a3c4eca1af91f6fbf8764
system_ext/lib64/vendor.qti.hardware.data.cne.internal.server@1.0.so|fdd9d8194b86a35e11ad35bcef6daaa34a70024e
system_ext/lib64/vendor.qti.hardware.data.connection@1.0.so|925f592b718ba7667dbe7a3f7d85cd7369d58a19
system_ext/lib64/vendor.qti.hardware.data.connection@1.1.so|3184fcd312561e9a7083e963f83d42e7db316223
system_ext/lib64/vendor.qti.hardware.data.dynamicdds@1.0.so|581425220423dd5a19d1edbbe665d2ba82e3990b
system_ext/lib64/vendor.qti.hardware.data.iwlan@1.0.so|0866ecb6f08e313d64d7e065410c0eea5de5e93d
system_ext/lib64/vendor.qti.hardware.data.latency@1.0.so|63a094fc1bfb31586d30e95e8c12d8a4d876341c
system_ext/lib64/vendor.qti.hardware.data.lce@1.0.so|94db95470ed447719a7393201453287d4c96f076
system_ext/lib64/vendor.qti.hardware.data.qmi@1.0.so|369509a75d0e046777774d6e824cb25cf78619ea
system_ext/lib64/vendor.qti.hardware.embmssl@1.0-adapter-helper.so|5f681149b7981a7aa20562c44fe7f0538fb8d084
system_ext/lib64/vendor.qti.hardware.embmssl@1.0.so|36c27d704d74d3fd826fa8f751a330bbe9e16bbc
system_ext/lib64/vendor.qti.hardware.embmssl@1.1-adapter-helper.so|e12f5f04a33722db49339903445b0834b314afe8
system_ext/lib64/vendor.qti.hardware.embmssl@1.1.so|58fa23fa60cbf762cbb6c9d1b4568c7f314c4584
system_ext/lib64/vendor.qti.hardware.mwqemadapter@1.0.so|3fc27a9a0ad1cc8645e03209b32ec8af1cf05005
system_ext/lib64/vendor.qti.hardware.radio.am@1.0.so|97529a35477f7507ff0cec7483b7b98e715f8f2e
system_ext/lib64/vendor.qti.hardware.radio.ims@1.0.so|6afd7122afaae5001484f31e6735ef87f19f13c1
system_ext/lib64/vendor.qti.hardware.radio.ims@1.1.so|96da1f048ab6a4a31da49976f3d43e7ad60440b4
system_ext/lib64/vendor.qti.hardware.radio.ims@1.2.so|3ada78e3b2342d3df3c230e6e5b152aa5461488e
system_ext/lib64/vendor.qti.hardware.radio.ims@1.3.so|6c973bc390990682629e9d14223dfddc661baca5
system_ext/lib64/vendor.qti.hardware.radio.ims@1.4.so|587b36a2dfce36d6c3120236cea56c24d365e28b
system_ext/lib64/vendor.qti.hardware.radio.ims@1.5.so|23604d22ce50a674e48c4a2d27c175c352f7efb5
system_ext/lib64/vendor.qti.hardware.radio.ims@1.6.so|9898c076746b6505d2cad5da1e830f68e6f2741a
system_ext/lib64/vendor.qti.hardware.radio.ims@1.7.so|5b62ec365a390178957881a00dfa437a720b2471
system_ext/lib64/vendor.qti.hardware.radio.internal.deviceinfo@1.0.so|dcdddc1ddd7ad9d8b50f526b74a488be8402d14a
system_ext/lib64/vendor.qti.hardware.radio.lpa@1.0.so|2f5851db264a0e8881bd3c81d83bd6a69ea00afd
system_ext/lib64/vendor.qti.hardware.radio.lpa@1.1.so|dcbdf380a8ffa50091ccefbafbabab8b4f5ea56b
system_ext/lib64/vendor.qti.hardware.radio.qcrilhook@1.0.so|b6438e4a1cc9a89e57a15c5e7aea82453abafd0c
system_ext/lib64/vendor.qti.hardware.radio.qtiradio@1.0.so|3e0ef8373a1f26511e74c0a418760128d7d8d556
system_ext/lib64/vendor.qti.hardware.radio.qtiradio@2.0.so|54c387a6389169fbc3a06b5d7ec663be30288127
system_ext/lib64/vendor.qti.hardware.radio.qtiradio@2.1.so|31b559c7221036cc3a84e7e9855285cca16f6183
system_ext/lib64/vendor.qti.hardware.radio.qtiradio@2.2.so|f7a3ba1a01abb41a0c7790ceb00c8f81e2b41120
system_ext/lib64/vendor.qti.hardware.radio.qtiradio@2.3.so|a7fc0a5e0c8ba5e604efc08581bd85fb3778f9d1
system_ext/lib64/vendor.qti.hardware.radio.qtiradio@2.4.so|c3239bf72c2f3717c0ad7ee05719cf794d3c70ee
system_ext/lib64/vendor.qti.hardware.radio.qtiradio@2.5.so|ceb3b6c8fc96fc1856c15c4db94fe3fbc4ac3ffb
system_ext/lib64/vendor.qti.hardware.radio.qtiradio@2.6.so|6ba350659571308dfbaf54e24d119b725607fcaf
system_ext/lib64/vendor.qti.hardware.radio.uim@1.0.so|1945a179d5d75898b7b835a465b900898c797261
system_ext/lib64/vendor.qti.hardware.radio.uim@1.1.so|9d45bb07204a49da93804cfaaa9c4ef1c0548120
system_ext/lib64/vendor.qti.hardware.radio.uim@1.2.so|faf3d8ae43dd0cba663ae26526b445e9f8a9bc02
system_ext/lib64/vendor.qti.hardware.radio.uim_remote_client@1.0.so|d485321da8ae0bab94b0050e804e77f0202bb490
system_ext/lib64/vendor.qti.hardware.radio.uim_remote_client@1.1.so|49806e645151bcb27c996c1b2ef108e70ea87b96
system_ext/lib64/vendor.qti.hardware.radio.uim_remote_client@1.2.so|16f85dcebf7cab1b948ce66d4f34d383b5765db6
system_ext/lib64/vendor.qti.hardware.radio.uim_remote_server@1.0.so|eb8e95370ec7498b38fe0b8c3f2e802c86ee418c
system_ext/lib64/vendor.qti.hardware.slmadapter@1.0.so|f0fca619e4911ad2b66c70698633dabc7ede445d
system_ext/lib64/vendor.qti.ims.callcapability@1.0.so|a7b39ed50a3356257b64ab390194f5644d74cae1
system_ext/lib64/vendor.qti.ims.callinfo@1.0.so|cf4fd91519f15b3424d3076fb820ce7f4b262085
system_ext/lib64/vendor.qti.ims.factory@1.0.so|4b09cbb8e07b67494de68d0f2ed69e82183714b3
system_ext/lib64/vendor.qti.ims.factory@1.1.so|89139949ee99304b5b897b5432190697ac12c138
system_ext/lib64/vendor.qti.ims.rcsconfig@1.0.so|6c0803137d0132c2f24ebebb9e57b89153671b61
system_ext/lib64/vendor.qti.ims.rcsconfig@1.1.so|837ff3a3a57a6b41f865677c38a4a2806b6e3b79
system_ext/lib64/vendor.qti.ims.rcsconfig@2.0.so|26f9a4c003babae029a39b0fc0b9d09d6503fb1a
system_ext/lib64/vendor.qti.ims.rcsconfig@2.1.so|9459cae4b459693a45919f77f4f692f248b2b299
system_ext/lib64/vendor.qti.imsrtpservice@3.0.so|34da5e45ae4817ccff75c6b8d1d0c125ebd253ed
system_ext/lib64/vendor.qti.latency@2.0.so|05d3b3e8f26dad7eaed69bbd99e762952ff503ae
system_ext/lib64/vendor.qti.latency@2.1.so|7f5acd3205a45bca493d757d97da4a6b80656e17
-system_ext/priv-app/QAS_DVC_MSP/QAS_DVC_MSP.apk|3b64bf940c3ad2bcb36a5e994f6c659f5648680a
-system_ext/priv-app/dpmserviceapp/dpmserviceapp.apk|74ec0d8e2ef3d7e3b0a730da9b97237921778ac4
-system_ext/priv-app/ims/ims.apk|ed68ecd630ddbd49e88bd0b2e3b50ee35c334ef0
-system_ext/priv-app/qcrilmsgtunnel/qcrilmsgtunnel.apk|60af440aae61fcd6939af56a0b94d9b9ef5ebd55

# Thermal - from S62Pro RKQ1.210406.002
vendor/bin/thermal-engine|fe478f3ba50a819f58cc55dc1227bc0e37d30b14
vendor/etc/init/init_thermal-engine.rc|a0310f09da9f09c67e110607b73aec9f9f981c4c
-vendor/lib/libthermalclient.so|b2d69a3a3589eb0387c2f13cc10ff91072c27c9a
-vendor/lib64/libthermalclient.so|26475ef0d6b80fcf40c9490f795d21e46d3d9054

# Time services - from S62Pro RKQ1.210406.002
-vendor/app/TimeService/TimeService.apk|88f7c7f4c10f53dfd69cf7828f883d3df82003e7
vendor/bin/time_daemon|48401d7f85c87aa3e12ce7b4a969a50cbf59c293
vendor/etc/init/init.time_daemon.rc|b253ca2a498757e14e1d7a051bf504ae09218f51
-vendor/lib/libtime_genoff.so|9d0ed7481f38fa59b02e9d62a29cd1dd64ca06b6
-vendor/lib64/libtime_genoff.so|8bb116ad297a5e4a94da2f10509509cb6e863a5f

# SMC Invoke - from LA.UM.9.12.r1-10800-SMxx50.0
vendor/etc/ssg/ta_config.json|e18554b038da3737b7352d1271e5fde9c789c9df
vendor/etc/ssg/tz_whitelist.json|c0dc4f4cfee20db5993eb5142e362cba7dfaecd6
vendor/lib64/libminkdescriptor.so|6f8f11ee5cbfa618eed75d317adf734550a51182
vendor/lib64/libnative-api.so|09c8712984bb02dbf43c536e7835a7307b5115e8
vendor/lib64/libqcbor.so|c7db76dc44c7f492791aa27a18a0a5035f21b062

# TFTP - from LA.UM.9.12.r1-10800-SMxx50.0
vendor/bin/tftp_server|f096a58e024ef6d1ad78da49388c183747d384da
vendor/etc/init/vendor.qti.tftp.rc|b27f188cbffba470a4510d50e46ff7c8446c22cb

# WiFi - from LA.UM.9.12.r1-10800-SMxx50.0
vendor/bin/cnss-daemon|78ebe10a7a46e22d36864406b23f4164b522115c
